<?xml version="1.0" encoding="UTF-8" standalone="no"?>
<!-- Created with Inkscape (http://www.inkscape.org/) -->

<svg
   xmlns:dc="http://purl.org/dc/elements/1.1/"
   xmlns:cc="http://creativecommons.org/ns#"
   xmlns:rdf="http://www.w3.org/1999/02/22-rdf-syntax-ns#"
   xmlns:svg="http://www.w3.org/2000/svg"
   xmlns="http://www.w3.org/2000/svg"
   xmlns:sodipodi="http://sodipodi.sourceforge.net/DTD/sodipodi-0.dtd"
   xmlns:inkscape="http://www.inkscape.org/namespaces/inkscape"
   width="24.000002"
   height="23.999998"
   viewBox="0 0 24.000002 23.999998"
   id="svg2"
   version="1.1"
   inkscape:version="0.91 r13725"
   sodipodi:docname="cubo-esporte-icone-noticias.svg">
  <defs
     id="defs4" />
  <sodipodi:namedview
     id="base"
     pagecolor="#ffffff"
     bordercolor="#666666"
     borderopacity="1.0"
     inkscape:pageopacity="0.0"
     inkscape:pageshadow="2"
     inkscape:zoom="13.75912"
     inkscape:cx="10.436144"
     inkscape:cy="8.190319"
     inkscape:document-units="px"
     inkscape:current-layer="noticias"
     showgrid="false"
     units="px"
     fit-margin-top="0"
     fit-margin-left="0"
     fit-margin-right="0"
     fit-margin-bottom="0"
     inkscape:showpageshadow="false"
     inkscape:window-width="1280"
     inkscape:window-height="656"
     inkscape:window-x="0"
     inkscape:window-y="27"
     inkscape:window-maximized="1"
     showguides="false" />
  <metadata
     id="metadata7">
    <rdf:RDF>
      <cc:Work
         rdf:about="">
        <dc:format>image/svg+xml</dc:format>
        <dc:type
           rdf:resource="http://purl.org/dc/dcmitype/StillImage" />
        <dc:title />
      </cc:Work>
    </rdf:RDF>
  </metadata>
  <g
     inkscape:label="Camada 1"
     inkscape:groupmode="layer"
     id="icone"
     transform="translate(426.19168,-650.00504)">
    <path
       d="m -410.45324,659.00503 0,6.73844 -6.73844,0 0,6.26156 13,0 0,-13 -6.26156,0 z"
       id="rect3373-7"
       inkscape:connector-curvature="0" />
    <path
       d="m -411.19168,665.00504 -13,0 0,-13 13,0 z"
       id="rect3373"
       inkscape:connector-curvature="0" />
    <path
       d="m -423.94709,665.58293 6.17761,6.17761 0,-6.17761 -6.17761,0 z"
       id="rect3373-7-6-9"
       inkscape:connector-curvature="0" />
    <path
       d="m -410.61378,652.24963 0,6.1776 6.1776,0 -6.1776,-6.1776 z"
       id="rect3373-7-6-9-7"
       inkscape:connector-curvature="0" />
  </g>
</svg>
