<?xml version="1.0" encoding="UTF-8" standalone="no"?>
<!-- Created with Inkscape (http://www.inkscape.org/) -->

<svg
   xmlns:dc="http://purl.org/dc/elements/1.1/"
   xmlns:cc="http://creativecommons.org/ns#"
   xmlns:rdf="http://www.w3.org/1999/02/22-rdf-syntax-ns#"
   xmlns:svg="http://www.w3.org/2000/svg"
   xmlns="http://www.w3.org/2000/svg"
   xmlns:sodipodi="http://sodipodi.sourceforge.net/DTD/sodipodi-0.dtd"
   xmlns:inkscape="http://www.inkscape.org/namespaces/inkscape"
   width="900"
   height="1000.0001"
   viewBox="0 0 900 1000.0001"
   id="svg4144"
   version="1.1"
   inkscape:version="0.91 r13725"
   sodipodi:docname="escudo-desbravante.svg"
   inkscape:export-filename="/home/diogocampos/Downloads/atletico.png"
   inkscape:export-xdpi="90"
   inkscape:export-ydpi="90">
  <defs
     id="defs4146">
    <linearGradient
       id="linearGradient2503-4-2-6">
      <stop
         offset="0"
         style="stop-color:#585858"
         id="stop2505-8-4-8" />
      <stop
         offset="1"
         style="stop-color:#f9f9f9"
         id="stop2507-8-8-6" />
    </linearGradient>
    <linearGradient
       id="linearGradient10097-0">
      <stop
         offset="0"
         style="stop-color:#232323"
         id="stop10099-3" />
      <stop
         offset=".23462"
         style="stop-color:#282828"
         id="stop10111-7" />
      <stop
         offset=".41869"
         style="stop-color:#313131"
         id="stop10109-2" />
      <stop
         offset=".61685"
         style="stop-color:#3c3c3c"
         id="stop10107-0" />
      <stop
         offset=".79369"
         style="stop-color:#3a3a3a"
         id="stop10105-9" />
      <stop
         offset="1"
         style="stop-color:#2f2f2f"
         id="stop10101-9" />
    </linearGradient>
  </defs>
  <sodipodi:namedview
     id="base"
     pagecolor="#ffffff"
     bordercolor="#666666"
     borderopacity="1.0"
     inkscape:pageopacity="0.0"
     inkscape:pageshadow="2"
     inkscape:zoom="0.46"
     inkscape:cx="450"
     inkscape:cy="500.00004"
     inkscape:document-units="px"
     inkscape:current-layer="layer1"
     showgrid="false"
     units="px"
     inkscape:showpageshadow="false"
     inkscape:window-width="1280"
     inkscape:window-height="656"
     inkscape:window-x="0"
     inkscape:window-y="27"
     inkscape:window-maximized="1"
     showguides="false"
     inkscape:guide-bbox="true"
     fit-margin-top="0"
     fit-margin-left="0"
     fit-margin-right="0"
     fit-margin-bottom="0">
    <sodipodi:guide
       position="523.91304,100.00004"
       orientation="0,1"
       id="guide4159"
       inkscape:label=""
       inkscape:color="rgb(0,0,255)" />
    <sodipodi:guide
       position="150,200.00004"
       orientation="0,1"
       id="guide4161"
       inkscape:label=""
       inkscape:color="rgb(0,0,255)" />
    <sodipodi:guide
       position="-165.21739,300.00003"
       orientation="0,1"
       id="guide4163"
       inkscape:label=""
       inkscape:color="rgb(0,0,255)" />
    <sodipodi:guide
       position="-221.73913,400.00003"
       orientation="0,1"
       id="guide4165"
       inkscape:label=""
       inkscape:color="rgb(0,0,255)" />
    <sodipodi:guide
       position="-180.43478,500.00003"
       orientation="0,1"
       id="guide4167"
       inkscape:label=""
       inkscape:color="rgb(0,0,255)" />
    <sodipodi:guide
       position="-156.52174,600.00003"
       orientation="0,1"
       id="guide4169"
       inkscape:label=""
       inkscape:color="rgb(0,0,255)" />
    <sodipodi:guide
       position="-95.652174,900.00002"
       orientation="0,1"
       id="guide4171"
       inkscape:label=""
       inkscape:color="rgb(0,0,255)" />
    <sodipodi:guide
       position="-82.608696,700.00002"
       orientation="0,1"
       id="guide4173"
       inkscape:label=""
       inkscape:color="rgb(0,0,255)" />
    <sodipodi:guide
       position="-89.130435,800.00002"
       orientation="0,1"
       id="guide4175"
       inkscape:label=""
       inkscape:color="rgb(0,0,255)" />
    <sodipodi:guide
       position="50,980.4348"
       orientation="1,0"
       id="guide4177"
       inkscape:label=""
       inkscape:color="rgb(0,0,255)" />
    <sodipodi:guide
       position="150,1160.8696"
       orientation="1,0"
       id="guide4179"
       inkscape:label=""
       inkscape:color="rgb(0,0,255)" />
    <sodipodi:guide
       position="250,1108.6957"
       orientation="1,0"
       id="guide4181"
       inkscape:label=""
       inkscape:color="rgb(0,0,255)" />
    <sodipodi:guide
       position="350,1078.2609"
       orientation="1,0"
       id="guide4183"
       inkscape:label=""
       inkscape:color="rgb(0,0,255)" />
    <sodipodi:guide
       position="450,1143.4783"
       orientation="1,0"
       id="guide4185"
       inkscape:label=""
       inkscape:color="rgb(0,0,255)" />
    <sodipodi:guide
       position="550,1108.6957"
       orientation="1,0"
       id="guide4187"
       inkscape:label=""
       inkscape:color="rgb(0,0,255)" />
    <sodipodi:guide
       position="650,1095.6522"
       orientation="1,0"
       id="guide4189"
       inkscape:label=""
       inkscape:color="rgb(0,0,255)" />
    <sodipodi:guide
       position="850,1504.3478"
       orientation="1,0"
       id="guide4193"
       inkscape:label=""
       inkscape:color="rgb(0,0,255)" />
    <sodipodi:guide
       position="50,700.00002"
       orientation="1,0"
       id="guide4535" />
    <sodipodi:guide
       position="750,1048.3627"
       orientation="1,0"
       id="guide4348"
       inkscape:label=""
       inkscape:color="rgb(0,0,255)" />
    <sodipodi:guide
       position="-278.26087,350.00003"
       orientation="0,1"
       id="guide4823"
       inkscape:label=""
       inkscape:color="rgb(255,225,0)" />
    <sodipodi:guide
       position="475,15.217431"
       orientation="1,0"
       id="guide4825"
       inkscape:label=""
       inkscape:color="rgb(255,179,0)" />
    <sodipodi:guide
       position="425,1191.3043"
       orientation="1,0"
       id="guide4827"
       inkscape:label=""
       inkscape:color="rgb(255,247,0)" />
  </sodipodi:namedview>
  <metadata
     id="metadata4149">
    <rdf:RDF>
      <cc:Work
         rdf:about="">
        <dc:format>image/svg+xml</dc:format>
        <dc:type
           rdf:resource="http://purl.org/dc/dcmitype/StillImage" />
        <dc:title></dc:title>
      </cc:Work>
    </rdf:RDF>
  </metadata>
  <g
     inkscape:label="Camada 1"
     inkscape:groupmode="layer"
     id="layer1"
     transform="translate(-50,-52.36216)">
    <path
       id="imagebot_4-9"
       style="fill:#7a0606;fill-opacity:1"
       inkscape:connector-curvature="0"
       d="m 492.67875,52.363202 -0.0258,1.866499 6.2673,8.01695 -0.0421,3.048137 -10.17267,-5.056439 -1.93169,-0.0267 -0.17864,12.911618 1.93169,0.0267 10.30061,-4.190783 -0.10197,7.363493 c -7.07657,0.663591 -12.57005,5.067764 -12.64488,10.478225 -0.0824,5.944709 6.38739,10.861353 14.46639,10.973131 8.07951,0.111767 14.70577,-4.62399 14.78803,-10.568359 0.0723,-5.237123 -4.95434,-9.655974 -11.67681,-10.712449 l 0.0963,-6.952494 10.13377,4.456402 1.81535,0.02507 0.16917,-12.227175 -1.81537,-0.02507 -10.26098,4.739426 0.058,-4.195524 6.48661,-7.840457 0.0258,-1.8665 -17.68778,-0.244743 z m 6.00954,26.648357 -0.0889,6.421712 c -2.78272,-0.396507 -5.31374,-1.306878 -7.4367,-2.569345 1.5932,-2.001066 4.31407,-3.438685 7.52554,-3.852367 z m 4.93233,0.188226 c 3.20411,0.668999 5.82065,2.366009 7.15296,4.56929 -2.1296,0.986975 -4.60366,1.608806 -7.24111,1.80094 l 0.0881,-6.370317 z m -30.34751,9.599425 c -3.67242,-0.0508 -6.68664,2.103339 -6.724,4.80551 -0.0374,2.70216 2.91621,4.921767 6.58872,4.972563 3.67244,0.05075 6.6864,-2.086198 6.72377,-4.788366 0.0373,-2.70217 -2.91605,-4.938893 -6.58849,-4.989707 z m 54.80885,0.758367 c -3.67241,-0.0508 -6.68663,2.103328 -6.724,4.805499 -0.0374,2.702172 2.91624,4.921779 6.58874,4.972576 3.6725,0.05075 6.68639,-2.08621 6.72378,-4.788385 0.0375,-2.702165 -2.91599,-4.938898 -6.58852,-4.98969 z m -30.0849,0.731307 c 3.86498,0.05353 7.4028,1.063272 10.22785,2.710699 -1.99877,1.35721 -4.69427,2.161689 -7.64128,2.120914 -3.9301,-0.05437 -7.35598,-1.610816 -9.28016,-3.913634 2.05581,-0.619992 4.32458,-0.950665 6.69349,-0.917903 z m -42.31783,1.589693 c -3.37867,-0.04674 -6.14892,1.933043 -6.1833,4.41904 -0.0344,2.486015 2.68001,4.541763 6.05865,4.588523 3.37865,0.0468 6.14889,-1.933132 6.18329,-4.419123 0.0344,-2.48601 -2.67999,-4.541676 -6.05864,-4.58844 z m 89.90733,1.244001 c -3.37864,-0.04674 -6.14889,1.93304 -6.18325,4.419055 -0.0344,2.485987 2.68,4.541747 6.05864,4.588497 3.37866,0.0468 6.1488,-1.93313 6.18321,-4.419097 0.0344,-2.486026 -2.67994,-4.541713 -6.0586,-4.588455 z m -105.94519,4.11774 c -3.01135,-0.04165 -5.47079,1.71598 -5.50145,3.931772 -0.0307,2.21581 2.37888,4.05797 5.39033,4.09964 3.01147,0.0416 5.47114,-1.73312 5.50178,-3.94893 0.0307,-2.215803 -2.37921,-4.040808 -5.39066,-4.082482 z m 121.8373,1.685787 c -3.01143,-0.04165 -5.47078,1.715995 -5.50144,3.931795 -0.0307,2.21581 2.3789,4.05796 5.39035,4.09962 3.01145,0.0417 5.47104,-1.73311 5.50168,-3.9489 0.0308,-2.21581 -2.37912,-4.04083 -5.39057,-4.082515 z m -79.71034,0.472815 -2.47078,0.239867 c -20.91365,2.024343 -40.58705,7.798443 -56.24682,13.951723 -15.65974,6.15321 -27.17226,12.57134 -32.25867,16.49296 l 4.70311,3.3022 c 4.09395,-3.15608 15.50686,-9.63428 30.66381,-15.59002 14.51879,-5.7049 32.60926,-10.99759 51.55646,-13.12572 2.706,4.60252 5.27352,8.85167 7.85827,19.20578 l 6.35374,0.0879 c -2.99047,-11.96665 -6.22435,-17.71173 -9.204,-22.87627 l -0.95427,-1.69166 z m 37.54065,0.519435 -1.00066,1.664615 c -3.12402,5.07914 -6.51707,10.73174 -9.83332,22.60938 l 6.35371,0.088 c 2.87022,-10.27949 5.55441,-14.45553 8.3867,-18.98099 18.88106,2.65171 36.8182,8.44278 51.1736,14.54712 14.9864,6.37277 26.21475,13.16404 30.22076,16.43246 l 4.79258,-3.17082 c -4.97621,-4.06066 -16.3065,-10.79488 -31.79003,-17.37918 -15.48354,-6.58402 -34.98967,-12.89985 -55.83932,-15.50258 l -2.46323,-0.308115 z m -18.7866,0.06558 c -3.08488,-0.0427 -5.61115,1.762725 -5.64256,4.032555 -0.0314,2.26982 2.44396,4.14443 5.52885,4.18713 3.08495,0.0427 5.61113,-1.76273 5.64254,-4.03255 0.0314,-2.26983 -2.44387,-4.14445 -5.52883,-4.187135 z m -75.05599,2.250035 c -2.79111,-0.0386 -5.07339,1.59252 -5.10181,3.64609 -0.0283,2.05365 2.20789,3.74731 4.99899,3.78592 2.79111,0.0386 5.09665,-1.59219 5.12507,-3.64585 0.0283,-2.05365 -2.23116,-3.74755 -5.02225,-3.78616 z m 150.04371,2.07606 c -2.79118,-0.0386 -5.09664,1.59221 -5.12506,3.64578 -0.0284,2.05365 2.23105,3.74763 5.02227,3.78626 2.79099,0.0386 5.07338,-1.59254 5.10179,-3.64617 0.0284,-2.05366 -2.20798,-3.74723 -4.999,-3.78587 z m -164.49668,4.36949 c -2.64417,-0.0365 -4.79303,1.51607 -4.81994,3.46159 -0.0269,1.94552 2.07816,3.55709 4.72233,3.5937 2.64417,0.0365 4.81628,-1.51574 4.8432,-3.46134 0.0269,-1.94553 -2.10132,-3.55735 -4.74559,-3.59395 z m 178.76582,2.47348 c -2.64417,-0.0365 -4.81629,1.51574 -4.8432,3.46126 -0.0269,1.94554 2.10143,3.55746 4.74561,3.59402 2.64424,0.0365 4.79299,-1.51605 4.81992,-3.46165 0.0269,-1.94553 -2.07808,-3.55703 -4.72234,-3.59363 z m -89.39925,-0.68888 c -2.64416,-0.0365 -4.79291,1.51604 -4.81984,3.46157 -0.027,1.94562 2.07831,3.54 4.72249,3.57658 2.64417,0.0365 4.81604,-1.4986 4.84295,-3.44423 0.0269,-1.94551 -2.10141,-3.55734 -4.7456,-3.59392 z m -102.21694,5.09422 c -2.3504,-0.0326 -4.27854,1.3455 -4.30246,3.07486 -0.0239,1.72937 1.86537,3.16022 4.21574,3.19275 2.35039,0.0326 4.27854,-1.34543 4.30246,-3.07488 0.0239,-1.72937 -1.86536,-3.16022 -4.21574,-3.19273 z m 204.27134,2.82639 c -2.35039,-0.0326 -4.27842,1.34551 -4.30237,3.07486 -0.0239,1.72937 1.86527,3.16022 4.21564,3.19274 2.35039,0.0327 4.27855,-1.34542 4.30248,-3.07487 0.0238,-1.72935 -1.86537,-3.16021 -4.21576,-3.19273 z m -171.30337,-1.58238 c -6.24999,6.94001 -6.12055,15.98559 -2.50396,26.18784 -28.45406,-9.34465 -38.6649,17.48844 -17.1196,25.98561 -1.5645,-6.56832 0.11796,-13.52972 9.78619,-14.14869 5.171,-0.3314 11.22343,0.82763 11.85692,7.80305 0.4455,4.90698 -5.36022,16.52854 -23.10548,16.12301 -11.08886,-0.25457 -22.88769,-3.4747 -27.95994,-16.62412 -1.89059,-4.90152 -1.86032,-4.66322 4.62159,-2.59081 2.53684,0.81104 5.74235,2.46563 11.02177,5.92453 -0.30114,-5.48088 -3.70824,-19.42637 -7.37873,-23.58456 -5.01308,2.52018 -5.58657,5.56413 -15.00056,7.4143 3.401,-4.70365 6.56195,-9.508 11.37722,-14.70982 -9.88719,0.40565 -15.85503,2.06636 -22.38821,3.01306 1.46429,4.68631 2.95355,9.31352 5.12768,12.98502 -4.98811,6.90989 -0.93819,10.10337 4.07218,13.5702 2.04037,1.41188 11.06011,21.6701 6.2636,28.46775 -2.52893,3.58376 -1.13308,7.47268 2.27004,9.22891 3.80705,1.96483 7.2171,4.46883 10.30774,7.04511 3.95787,3.29907 3.02216,3.62115 7.96082,1.703 17.38504,-6.7526 55.14692,-11.03807 98.82005,-10.43378 43.67318,0.60427 81.30117,5.93279 98.49362,13.16392 4.8836,2.05404 3.95717,1.7061 8.00488,-1.48211 3.16082,-2.48977 6.63883,-4.89849 10.49872,-6.75723 3.45037,-1.6615 4.95326,-5.51029 2.52438,-9.16256 -4.60698,-6.92777 4.9702,-26.92832 7.04884,-28.28356 5.1043,-3.32721 9.24107,-6.4071 4.44601,-13.45233 2.27492,-3.61055 3.89159,-8.19444 5.48498,-12.8382 -6.50495,-1.12708 -12.42411,-2.95224 -22.29712,-3.63133 4.6693,5.33297 7.69613,10.22287 10.96587,15.01897 -9.35928,-2.10993 -9.84852,-5.16858 -14.78968,-7.82649 -3.78413,4.05504 -7.57572,17.90022 -8.02837,23.37138 5.37301,-3.31151 8.62306,-4.87681 11.18146,-5.61732 6.53684,-1.89227 6.57362,-2.12965 4.54824,2.71769 -5.4335,13.00415 -17.31749,15.89622 -28.40916,15.84418 -17.74941,-0.0859 -23.23148,-11.8629 -22.6506,-16.75612 0.82605,-6.95524 6.90849,-7.94636 12.06825,-7.47201 9.64811,0.88686 11.1371,7.89197 9.39102,14.41402 21.77213,-7.89807 12.30751,-35.00311 -16.39418,-26.44929 3.89747,-10.0983 4.277,-19.13667 -1.77849,-26.2471 -7.51465,5.39748 -16.29696,9.93547 -13.6358,24.85177 -5.3417,-2.91421 -9.98527,-5.83799 -14.8276,-5.08656 -6.52783,1.01304 -12.48115,2.87682 -13.71445,10.37774 -0.86114,5.23782 3.1721,10.30015 8.5873,13.61518 0.79919,-5.1405 2.15581,-9.61269 9.97997,-9.64169 8.98419,-0.0337 10.57639,5.44766 10.24695,9.73359 -0.45584,5.93463 -11.47338,12.75271 -25.44273,11.79179 -14.0025,-0.9637 -26.02707,-9.92044 -25.67084,-20.56607 4.42545,0.84451 9.96001,4.3148 12.51075,5.97942 0.49114,0.32058 2.22233,0.32104 2.71866,0.34592 l 0.30799,-22.26208 c -0.6509,0.002 -1.98443,-0.1538 -2.7726,0.18431 -4.04429,1.73422 -8.90005,7.35025 -11.68667,6.80932 2.26064,-6.49633 8.29752,-14.26283 8.47458,-16.92519 l -28.7658,-0.39804 c 0.1029,2.666 5.92311,10.59614 8.00313,17.15321 -2.80068,0.46364 -7.49904,-5.2846 -11.4938,-7.13006 -0.77857,-0.35968 -2.11582,-0.24128 -2.76644,-0.26095 l -0.30799,22.26208 c 0.49684,-0.0105 2.22743,0.0351 2.72718,-0.27056 2.59555,-1.59334 8.22426,-4.90926 12.67136,-5.631 0.0616,10.6514 -12.20527,19.27176 -26.22998,19.84795 -13.99146,0.57457 -24.81572,-6.54599 -25.10676,-12.49124 -0.21064,-4.29312 1.53284,-9.72795 10.5123,-9.44635 7.8203,0.24583 9.05259,4.75365 9.70946,9.91411 5.50501,-3.16445 9.67646,-8.11299 8.96064,-13.37238 -1.02529,-7.53253 -6.92506,-9.55997 -13.42207,-10.75321 -4.81917,-0.88506 -9.54255,1.90907 -14.96265,4.67438 3.07271,-14.83697 -5.58044,-19.61665 -12.94306,-25.21953 z m 69.11773,2.9603 c -1.9096,-0.0264 -3.46009,1.08163 -3.47953,2.48678 -0.0195,1.40514 1.49949,2.57279 3.40916,2.5992 1.90968,0.0265 3.48366,-1.09843 3.50311,-2.50357 0.0194,-1.40515 -1.52307,-2.55599 -3.43274,-2.58241 z m -112.56642,3.08408 c -1.90976,-0.0264 -3.48366,1.09842 -3.50309,2.50357 -0.0195,1.40515 1.52298,2.55598 3.43274,2.5824 1.90967,0.0265 3.48334,-1.08129 3.50278,-2.48643 0.0195,-1.40516 -1.52273,-2.57311 -3.43243,-2.59954 z m 225.03063,3.11362 c -1.90967,-0.0265 -3.48366,1.09844 -3.5031,2.50358 -0.0195,1.40515 1.52305,2.55598 3.43273,2.58239 1.90968,0.0265 3.48334,-1.08127 3.50278,-2.48643 0.0195,-1.40516 -1.52273,-2.57312 -3.43241,-2.59954 z m -112.835,20.60193 c 1.61591,0.0223 2.91913,1.00928 2.90266,2.19826 -0.0164,1.18897 -1.34645,2.13945 -2.96236,2.11709 -1.61582,-0.0223 -2.89579,-1.00896 -2.87932,-2.19792 0.0164,-1.18897 1.32313,-2.1398 2.93902,-2.11743 z m -127.67907,6.66027 c 1.17991,-0.002 2.58359,1.43357 3.23581,3.35045 0.69586,2.0447 0.2573,3.87089 -0.96426,4.08026 -1.2216,0.20931 -2.77329,-1.2747 -3.46915,-3.3194 -0.69577,-2.04472 -0.25723,-3.87091 0.96428,-4.08026 0.0764,-0.0132 0.15477,-0.0308 0.23317,-0.0311 z m 255.16874,3.53063 c 0.0786,0.002 0.15626,0.0223 0.23219,0.0376 1.21532,0.24304 1.60317,2.08061 0.85113,4.10527 -0.75208,2.02468 -2.34425,3.46524 -3.55957,3.22217 -1.21533,-0.24304 -1.60316,-2.0807 -0.85102,-4.10538 0.70504,-1.8981 2.14785,-3.29379 3.32704,-3.25987 z m -127.9,19.4685 6.75418,8.16067 -6.97758,7.98773 -6.75387,-8.17773 6.97726,-7.97067 z m -28.50198,2.39748 c 1.90968,0.0265 3.45218,1.17725 3.43272,2.58241 -0.0195,1.40506 -1.59335,2.53 -3.50308,2.50357 -1.9097,-0.0265 -3.42871,-1.19407 -3.40926,-2.59921 0.0194,-1.40516 1.56995,-2.51318 3.47962,-2.48677 z m 56.97394,0.78833 c 1.90969,0.0264 3.42893,1.17692 3.40949,2.58208 -0.0195,1.40505 -1.57017,2.5303 -3.47985,2.50387 -1.90967,-0.0264 -3.45195,-1.19437 -3.43252,-2.59952 0.0195,-1.40515 1.59311,-2.51286 3.50288,-2.48643 z m -83.25686,-0.62104 c 7.07194,0.20011 12.8103,3.03128 13.4286,6.93416 0.7066,4.46051 -5.5524,8.62522 -13.97925,9.29521 -8.42671,0.67011 -15.81922,-2.41377 -16.5251,-6.87417 -0.70661,-4.46052 5.55218,-8.60817 13.979,-9.27862 1.05331,-0.0838 2.0867,-0.10558 3.09701,-0.0772 z m 109.52159,1.51541 c 1.01066,-3.6e-4 2.04303,0.0499 3.09372,0.16277 8.40485,0.903 14.54683,5.22221 13.71694,9.66182 -0.82979,4.43925 -8.30434,7.31741 -16.70897,6.41443 -8.40489,-0.90297 -14.54659,-5.23934 -13.71672,-9.67841 0.72602,-3.8843 6.5405,-6.55549 13.61529,-6.55989 z m -144.11209,5.19962 c 1.90958,0.0265 3.45185,1.19439 3.43241,2.59952 -0.0195,1.40517 -1.59309,2.51287 -3.50278,2.48645 -1.90968,-0.0264 -3.45217,-1.17725 -3.43275,-2.58241 0.0195,-1.40513 1.59334,-2.52998 3.50312,-2.50356 z m 178.51233,2.46998 c 1.90976,0.0264 3.45204,1.19438 3.4326,2.59954 -0.0195,1.40514 -1.59319,2.51285 -3.50296,2.48643 -1.90959,-0.0265 -3.45201,-1.17724 -3.43257,-2.58239 0.0194,-1.40516 1.59333,-2.53001 3.50292,-2.50358 z m -115.91544,1.23932 c 1.90967,0.0264 3.45218,1.17726 3.43273,2.5824 -0.0195,1.40515 -1.59334,2.53001 -3.50309,2.50358 -1.9097,-0.0265 -3.42864,-1.19407 -3.40918,-2.59922 0.0195,-1.40514 1.56986,-2.51318 3.47954,-2.48676 z m 53.24952,0.73679 c 1.90967,0.0264 3.42884,1.17694 3.4094,2.58208 -0.0194,1.40514 -1.57009,2.53031 -3.47976,2.5039 -1.90971,-0.0265 -3.45195,-1.1944 -3.43252,-2.59955 0.0195,-1.40514 1.59311,-2.51287 3.50287,-2.48643 z m -139.39853,0.67456 7.3166,4.52024 -2.23568,6.80302 -7.3396,-4.53768 2.25876,-6.78565 z m 225.47638,3.11981 2.07018,6.84553 -7.46233,4.33289 -2.04662,-6.86227 7.43877,-4.31607 z m -199.522,2.06941 c 1.90969,0.0265 3.4287,1.19406 3.40926,2.59922 -0.0195,1.40514 -1.56993,2.51317 -3.47961,2.48675 -1.90958,-0.0264 -3.45218,-1.17725 -3.43273,-2.58241 0.0195,-1.40515 1.59342,-2.53 3.50308,-2.50356 z m 173.43397,2.39972 c 1.90967,0.0264 3.45196,1.19437 3.43251,2.59953 -0.0195,1.40513 -1.5932,2.51286 -3.50287,2.48644 -1.90971,-0.0265 -3.42895,-1.17693 -3.40949,-2.58208 0.0195,-1.40516 1.57018,-2.53032 3.47985,-2.50389 z m -86.8018,4.93067 c -53.91207,-0.74594 -97.72023,6.76505 -97.78398,11.37315 -0.0583,4.21682 43.53936,12.04334 97.44968,12.78925 53.91208,0.74598 97.70788,-5.87167 97.76623,-10.08815 0.0637,-4.60793 -43.52159,-13.32831 -97.43193,-14.07425 z" />
    <text
       xml:space="preserve"
       style="font-style:normal;font-weight:normal;font-size:25px;line-height:125%;font-family:sans-serif;letter-spacing:0px;word-spacing:0px;fill:#000000;fill-opacity:1;stroke:none;stroke-width:1px;stroke-linecap:butt;stroke-linejoin:miter;stroke-opacity:1"
       x="354.34784"
       y="652.36218"
       id="text4226"
       sodipodi:linespacing="125%"><tspan
         sodipodi:role="line"
         id="tspan4228"
         x="354.34784"
         y="652.36218" /></text>
    <path
       style="fill:none;fill-rule:evenodd;stroke:#000000;stroke-width:0;stroke-linecap:butt;stroke-linejoin:miter;stroke-miterlimit:4;stroke-dasharray:none;stroke-opacity:1"
       d="m 104.24531,523.49801 827.059,-104.97488"
       id="path3420"
       inkscape:connector-curvature="0" />
    <text
       xml:space="preserve"
       style="font-style:normal;font-weight:normal;font-size:25px;line-height:125%;font-family:sans-serif;letter-spacing:0px;word-spacing:0px;fill:#000000;fill-opacity:1;stroke:none;stroke-width:1px;stroke-linecap:butt;stroke-linejoin:miter;stroke-opacity:1"
       x="2405.4294"
       y="506.35648"
       id="text4226-4"
       sodipodi:linespacing="125%"><tspan
         sodipodi:role="line"
         id="tspan4228-7"
         x="2405.4294"
         y="506.35648" /></text>
    <path
       sodipodi:nodetypes="cccccc"
       style="fill:#7a0606;fill-opacity:1;fill-rule:evenodd;stroke:none;stroke-width:1px;stroke-linecap:butt;stroke-linejoin:miter;stroke-opacity:1"
       d="m 200,252.36216 600,0 0,600 L 500,1052.3622 200,852.36216 Z"
       id="path4611"
       inkscape:connector-curvature="0" />
    <path
       style="fill:#cccccc;fill-rule:evenodd;stroke:none;stroke-width:1px;stroke-linecap:butt;stroke-linejoin:miter;stroke-opacity:1"
       d="m 224.9043,224.9043 0,150.0957 550.1914,0 0,-150.0957 -550.1914,0 z m 0,400.0957 0,161.67188 L 500,970.06836 775.0957,786.67188 775.0957,625 224.9043,625 Z"
       transform="translate(0,52.36216)"
       id="path4668"
       inkscape:connector-curvature="0" />
    <path
       d="m 250.01953,302.38086 0,523.21094 L 500,992.24609 749.98047,825.5918 l 0,-523.21094 -499.96094,0 z"
       id="path4670"
       style="fill:#7a0606;fill-opacity:1;fill-rule:evenodd;stroke:none;stroke-width:1px;stroke-linecap:butt;stroke-linejoin:miter;stroke-opacity:1"
       inkscape:original="M 200 252.36133 L 200 852.36133 L 500 1052.3613 L 800 852.36133 L 800 252.36133 L 200 252.36133 z "
       inkscape:radius="-50.019123"
       sodipodi:type="inkscape:offset" />
    <rect
       style="opacity:1;fill:#cccccc;fill-opacity:1;stroke:none;stroke-width:20;stroke-linecap:round;stroke-linejoin:miter;stroke-miterlimit:4;stroke-dasharray:none;stroke-dashoffset:0;stroke-opacity:1"
       id="rect4770"
       width="900"
       height="200"
       x="50"
       y="452.36215" />
    <g
       id="g4756"
       transform="matrix(-0.2167883,-0.00612109,-0.00611902,0.21677136,607.54716,665.03335)"
       style="fill:#cccccc">
      <g
         id="_x23_ffffffff"
         style="fill:#cccccc" />
      <g
         id="_x23_000000ff"
         style="fill:#cccccc">
        <path
           id="path4736"
           d="m 630.97,190.36 c 1.96,0.77 3.29,2.55 4.9301,3.82 51.68,44.92 103.44,89.76 155.13,134.69 -48.15,59.77 -96.32,119.53 -144.48,179.3 -4.91,-104.44 -9.81,-208.88 -14.67,-313.32 -0.2301,-1.12 -0.6801,-3.36 -0.9101,-4.49 z"
           inkscape:connector-curvature="0"
           style="fill:#cccccc;stroke:#000000;stroke-width:0.43252474" />
        <path
           id="path4738"
           d="m 446.5,269.55 c 44.95,43.28 89.73,86.74 134.84,129.84 -6.08,8.8 -13.28,16.8 -19.81,25.28 -38.34,47.91 -76.69,95.82 -115.04,143.73 -0.01,-99.62 -0.02,-199.23 0.01,-298.85 z"
           inkscape:connector-curvature="0"
           style="fill:#cccccc;stroke:#000000;stroke-width:0.43252474" />
        <path
           id="path4740"
           d="m 800.57,356.56 c 0.65,-0.65 1.31,-1.29 1.99,-1.92 44.28,136.83 88.63,273.64 132.94,410.46 -90.19,28.28 -180.38,56.56 -270.58,84.84 C 659.45,743.25 654.01,636.56 648.53,529.88 699.21,472.1 749.89,414.32 800.57,356.56 Z"
           inkscape:connector-curvature="0"
           style="fill:#cccccc;stroke:#000000;stroke-width:0.43252474" />
        <path
           id="path4742"
           d="m 446.46,589.24 c 47.13,-52.62 94.3,-105.19 141.53,-157.72 20.57,127.91 41.37,255.79 62,383.69 -67.84,10.95 -135.67,21.87 -203.51,32.79 -0.01,-86.26 0.03,-172.51 -0.02,-258.76 z"
           inkscape:connector-curvature="0"
           style="fill:#cccccc;stroke:#000000;stroke-width:0.43252474" />
        <path
           id="path4744"
           d="m 400.39,515.49 c 3.71,-3.02 7.36,-6.12 11.16,-9.02 -54.66,98.11 -109.49,196.12 -164.12,294.25 -68.87,2.9901 -137.74,5.8 -206.62,8.71 119.88,-97.96 239.72,-195.97 359.58,-293.94 z"
           inkscape:connector-curvature="0"
           style="fill:#cccccc;stroke:#000000;stroke-width:0.43252474" />
        <path
           id="path4746"
           d="m 243.9,820.5 c 61.74,-94.85 123.57,-189.64 185.24,-284.54 -0.08,100.63 -0.01,201.2599 -0.03,301.9 C 367.37,832.13 305.64,826.31 243.9,820.5 Z"
           inkscape:connector-curvature="0"
           style="fill:#cccccc;stroke:#000000;stroke-width:0.43252474" />
        <path
           id="path4748"
           d="m 12.11,812.34 c 93.49,19.06 187.85,33.95 282.79,43.6 79.45,7.97 159.29,11.63 239.12,12.57 61.4,0.81 122.95,-0.2 184.06,-6.74 38.53,-3.94 76.84,-10.13 114.64,-18.59 0,5.47 0.01,10.94 -0.01,16.42 -17.01,6.4301 -33.89,13.4901 -49.55,22.81 -10.64,6.44 -21.06,14.28 -27.1299,25.4 -4,6.97 -5.11,15.13 -4.76,23.06 -156.88,0.01 -313.77,0 -470.65,0.01 1.33,-10.56 -5.38,-19.82 -13.26,-26.04 -14.87,-11.88 -32.75,-19.15 -50.4,-25.82 -38.65,-14 -78.76,-23.38 -118.9,-31.94 -28.4,-5.87 -56.89,-11.34 -85.53,-15.93 C 12.37,824.87 12.15,818.61 12.11,812.34 Z"
           inkscape:connector-curvature="0"
           style="fill:#cccccc;stroke:#000000;stroke-width:0.43252474" />
      </g>
    </g>
    <g
       style="font-style:normal;font-weight:normal;font-size:61.45526123px;line-height:125%;font-family:sans-serif;text-align:end;letter-spacing:0px;word-spacing:0px;text-anchor:end;fill:#7a0606;fill-opacity:1;stroke:none;stroke-width:1px;stroke-linecap:butt;stroke-linejoin:miter;stroke-opacity:1"
       id="text4815">
      <path
         d="m 133.43993,581.34448 5.64159,0 q 10.06637,0 15.15487,-7.41151 5.19911,-7.4115 5.19911,-21.57079 0,-29.09292 -21.23894,-29.09292 l -4.75663,0 0,58.07522 z m 7.07964,-64.93363 q 16.4823,0 27.10177,9.51328 10.73009,9.40265 10.73009,26.43805 0,17.0354 -10.17699,26.54867 -10.17699,9.40266 -25.88496,9.40266 l -34.07079,0 q 0,-0.88496 0,-2.54425 0,-1.76991 0.5531,-3.76106 3.4292,-0.5531 5.19911,-1.88053 1.76991,-1.43806 1.76991,-4.75664 l 0,-51.54867 q -2.8761,-1.21682 -7.74336,-1.21682 -0.11062,-0.77433 -0.11062,-2.21239 0,-1.43805 0.5531,-3.9823 l 32.07964,0 z"
         style="font-style:normal;font-variant:normal;font-weight:bold;font-stretch:normal;font-size:110.61946869px;font-family:Halant;-inkscape-font-specification:'Halant Bold';fill:#7a0606;fill-opacity:1"
         id="path4837"
         inkscape:connector-curvature="0" />
      <path
         d="m 235.75084,572.05244 0.55309,-5.30973 0,-0.33186 q 1.21682,-0.11062 3.42921,-0.11062 2.21239,0 4.31416,0.5531 0.55309,7.30088 0.55309,12.72124 0,5.42035 -0.11062,8.73894 l -57.63274,0 q 0,-0.77434 0,-2.54425 0,-1.76991 0.66372,-3.76106 3.4292,-0.5531 5.19911,-1.88053 1.76991,-1.43806 1.76991,-4.75664 l 0,-51.54867 q -2.76548,-1.21682 -7.85398,-1.21682 0,-0.66372 0,-2.21239 0,-1.65929 0.5531,-3.9823 l 56.52655,0 q 0,2.32301 0,7.9646 0,5.53098 -0.66372,12.61062 -2.65487,0.22124 -7.4115,0.22124 -0.77434,-8.18584 -1.76992,-10.17699 -1.65929,-3.76106 -6.8584,-3.76106 l -14.82301,0 0,25.5531 14.60177,-1.54868 4.86726,0 0,9.73452 -4.86726,0 -14.60177,-0.99558 0,25.33186 14.93363,0 q 4.09292,0 6.19469,-2.43363 0.88495,-0.99557 1.54867,-3.20796 0.66372,-2.32301 0.88496,-3.65045 z"
         style="font-style:normal;font-variant:normal;font-weight:bold;font-stretch:normal;font-size:110.61946869px;font-family:Halant;-inkscape-font-specification:'Halant Bold';fill:#7a0606;fill-opacity:1"
         id="path4839"
         inkscape:connector-curvature="0" />
      <path
         d="m 304.29688,567.95952 q 0,10.06638 -7.85398,16.03983 -7.74336,5.86283 -18.47345,5.86283 -7.52212,0 -22.23451,-3.42921 -0.11062,-2.43362 -0.11062,-7.74336 0,-5.30973 0.99557,-14.82301 3.20797,0 7.41151,0.66372 0,0.44248 0,0.99558 0,16.15044 14.49115,16.15044 4.75663,0 7.4115,-1.99115 2.76549,-2.10177 2.76549,-5.86283 0,-3.87169 -2.43363,-6.85841 -2.43363,-2.98673 -6.19469,-4.86726 -3.65044,-1.88053 -7.9646,-4.31416 -4.31416,-2.43363 -8.07522,-4.97787 -3.65045,-2.65487 -6.08407,-7.19027 -2.43363,-4.5354 -2.43363,-10.50885 0,-9.62389 6.96902,-14.93363 7.07965,-5.30973 17.0354,-5.30973 9.95575,0 21.0177,3.20796 0,8.29646 -1.54867,19.35841 -2.98673,0 -5.75221,-0.33186 -1.99115,-14.49115 -12.61062,-14.49115 -4.42478,0 -7.41151,2.10177 -2.98672,2.10177 -2.98672,5.75221 0,3.65045 2.54424,6.63717 2.54425,2.87611 6.30531,4.75664 3.76107,1.76991 8.18584,4.20354 4.42478,2.32301 8.18585,4.86726 3.76106,2.43362 6.30531,6.8584 2.54424,4.42478 2.54424,10.17699 z"
         style="font-style:normal;font-variant:normal;font-weight:bold;font-stretch:normal;font-size:110.61946869px;font-family:Halant;-inkscape-font-specification:'Halant Bold';fill:#7a0606;fill-opacity:1"
         id="path4841"
         inkscape:connector-curvature="0" />
      <path
         d="m 339.123,581.34448 4.75664,0 q 14.71239,0 14.71239,-12.94248 0,-13.0531 -14.71239,-13.0531 l -4.75664,0 0,25.99558 z m 0,-32.9646 7.74336,0 q 3.87169,-1.65929 6.30531,-4.97788 2.54425,-3.4292 2.54425,-8.40708 0,-5.08849 -3.4292,-8.40708 -3.4292,-3.31858 -9.18142,-3.31858 l -3.9823,0 0,25.11062 z m 3.9823,-31.96903 q 15.81859,0 23.23009,5.42036 7.52213,5.30973 7.52213,14.04867 0,10.06637 -9.84514,14.71239 12.61062,4.5354 12.61062,17.80973 0,9.6239 -8.07522,14.82301 -8.07522,5.0885 -23.8938,5.0885 l -30.75222,0 q 0,-0.88496 0,-2.54425 0,-1.76991 0.5531,-3.76106 3.4292,-0.5531 5.19912,-1.88053 1.76991,-1.43806 1.76991,-4.75664 l 0,-51.54867 q -2.87611,-1.21682 -7.74337,-1.21682 -0.11062,-0.77433 -0.11062,-2.21239 0,-1.43805 0.5531,-3.9823 l 28.9823,0 z"
         style="font-style:normal;font-variant:normal;font-weight:bold;font-stretch:normal;font-size:110.61946869px;font-family:Halant;-inkscape-font-specification:'Halant Bold';fill:#7a0606;fill-opacity:1"
         id="path4843"
         inkscape:connector-curvature="0" />
      <path
         d="m 412.03851,548.71174 6.30531,0 q 5.42035,0 8.51769,-3.09735 3.20797,-3.20796 3.20797,-9.62389 0,-6.41593 -3.20797,-9.51328 -3.09734,-3.09734 -8.51769,-3.09734 l -6.30531,0 0,25.33186 z m 44.3584,32.63274 q 0,3.65044 -0.66371,6.96903 l -21.5708,0 -13.71681,-29.09292 q -1.6593,-3.65045 -4.86726,-3.65045 l -3.53982,0 0,24.44691 q 4.20354,1.54867 9.51327,1.99115 0.11062,0.55309 0.11062,1.99115 0,1.32743 -0.5531,4.31416 l -34.40265,0 q 0,-0.77434 0,-2.54425 0,-1.76991 0.66371,-3.76106 3.42921,-0.5531 5.19912,-1.88053 1.76991,-1.43806 1.76991,-4.75664 l 0,-51.54867 q -2.76549,-1.21682 -7.85398,-1.21682 0,-0.66372 0,-2.21239 0,-1.65929 0.5531,-3.9823 l 34.29203,0 q 12.83186,0 20.13274,5.19912 7.41151,5.08849 7.41151,14.38053 0,6.52655 -3.87168,11.17256 -3.76106,4.5354 -10.84071,6.74779 3.53982,2.10177 6.30531,7.52212 l 6.41593,12.83186 q 2.10177,4.20354 4.09292,5.6416 2.10177,1.43805 5.42035,1.43805 z"
         style="font-style:normal;font-variant:normal;font-weight:bold;font-stretch:normal;font-size:110.61946869px;font-family:Halant;-inkscape-font-specification:'Halant Bold';fill:#7a0606;fill-opacity:1"
         id="path4845"
         inkscape:connector-curvature="0" />
      <path
         d="m 483.29646,555.902 15.70796,0 -8.07522,-27.21239 -0.77433,3.87168 -6.85841,23.34071 z m 13.82743,32.41151 q 0,-3.98231 0.33186,-6.30531 5.30974,-1.21682 8.5177,-2.76549 l -4.64602,-15.70797 -20.35398,0 -4.97788,17.0354 q 2.54425,1.43806 8.96018,1.43806 0,3.31858 -0.44248,6.30531 l -24.77876,0 q 0,-0.66372 0,-2.21239 0,-1.6593 0.33186,-4.09292 3.31858,-0.99558 4.97788,-2.65487 1.76991,-1.65929 2.8761,-4.64602 l 18.91593,-58.18584 q 6.74779,-1.32743 17.80974,-1.54867 l 18.80531,60.06637 q 1.32743,3.9823 2.8761,5.42035 1.65929,1.43806 5.42036,1.54868 0,1.88053 -0.44248,6.30531 l -34.18142,0 z"
         style="font-style:normal;font-variant:normal;font-weight:bold;font-stretch:normal;font-size:110.61946869px;font-family:Halant;-inkscape-font-specification:'Halant Bold';fill:#7a0606;fill-opacity:1"
         id="path4847"
         inkscape:connector-curvature="0" />
      <path
         d="m 532.00706,522.49492 q -0.5531,-2.65487 -0.5531,-4.09292 0,-1.43805 0,-1.99115 l 34.73451,0 q 0.44248,1.54867 0.44248,3.31859 0,1.65929 -0.11062,2.76548 -8.07522,0.66372 -8.07522,4.75664 0,1.32743 0.77434,3.09734 l 13.49557,30.97346 q 1.32744,3.09734 2.21239,7.30088 l 0.44248,0 18.03097,-44.46903 q -4.42478,-1.54867 -8.5177,-1.65929 0,-4.64602 0.33186,-6.08407 l 22.45575,0 q -0.33185,2.98673 -1.10619,6.08407 -5.0885,1.1062 -7.4115,6.52655 l -25.88496,59.95575 -6.96903,0 -28.31858,-65.3761 q -2.32301,-0.99558 -5.97345,-1.1062 z"
         style="font-style:normal;font-variant:normal;font-weight:bold;font-stretch:normal;font-size:110.61946869px;font-family:Halant;-inkscape-font-specification:'Halant Bold';fill:#7a0606;fill-opacity:1"
         id="path4849"
         inkscape:connector-curvature="0" />
      <path
         d="m 630.64506,555.902 15.70797,0 -8.07523,-27.21239 -0.77433,3.87168 -6.85841,23.34071 z m 13.82743,32.41151 q 0,-3.98231 0.33186,-6.30531 5.30974,-1.21682 8.5177,-2.76549 l -4.64602,-15.70797 -20.35398,0 -4.97787,17.0354 q 2.54424,1.43806 8.96017,1.43806 0,3.31858 -0.44247,6.30531 l -24.77877,0 q 0,-0.66372 0,-2.21239 0,-1.6593 0.33186,-4.09292 3.31859,-0.99558 4.97788,-2.65487 1.76991,-1.65929 2.8761,-4.64602 l 18.91593,-58.18584 q 6.74779,-1.32743 17.80974,-1.54867 l 18.80531,60.06637 q 1.32743,3.9823 2.8761,5.42035 1.6593,1.43806 5.42036,1.54868 0,1.88053 -0.44248,6.30531 l -34.18142,0 z"
         style="font-style:normal;font-variant:normal;font-weight:bold;font-stretch:normal;font-size:110.61946869px;font-family:Halant;-inkscape-font-specification:'Halant Bold';fill:#7a0606;fill-opacity:1"
         id="path4851"
         inkscape:connector-curvature="0" />
      <path
         d="m 758.55917,516.41085 q 0,0.88496 0,2.65487 0,1.65929 -0.5531,3.53982 -3.4292,0.5531 -5.19911,1.99115 -1.76991,1.32744 -1.76991,4.64602 l 0,59.0708 -7.52213,0 -33.73894,-42.69912 -7.4115,-10.61947 0,45.90708 q 2.54425,1.1062 7.74336,1.1062 0.11062,0.66371 0.11062,2.21239 0,1.54867 -0.5531,4.09292 l -24.4469,0 q 0,-0.88496 0,-2.54425 0,-1.76991 0.5531,-3.76106 3.4292,-0.5531 5.19911,-1.88053 1.76992,-1.43806 1.76992,-4.75664 l 0,-52.21239 q -2.43363,-0.66372 -8.18585,-0.66372 0.22124,-3.9823 0.77434,-6.08407 l 23.89381,0 26.21681,33.18584 5.97345,8.73894 0,-34.51327 q -2.76549,-1.21682 -7.74336,-1.21682 0,-0.77433 0,-2.21239 0,-1.43805 0.44248,-3.9823 l 24.4469,0 z"
         style="font-style:normal;font-variant:normal;font-weight:bold;font-stretch:normal;font-size:110.61946869px;font-family:Halant;-inkscape-font-specification:'Halant Bold';fill:#7a0606;fill-opacity:1"
         id="path4853"
         inkscape:connector-curvature="0" />
      <path
         d="m 827.97115,516.41085 q 0.66372,5.19912 0.66372,10.17699 0,4.97788 -0.22124,8.96018 -1.65929,0.66372 -3.31858,0.66372 -1.6593,0 -2.65487,-0.11062 -0.5531,-7.19027 -2.87611,-9.95576 -2.21239,-2.76548 -6.74779,-2.76548 l -6.8584,0 0,57.52212 q 2.98672,1.1062 7.63274,1.1062 0,0.66371 0,2.21239 0,1.54867 -0.44248,4.09292 l -32.30088,0 q 0,-0.77434 0,-2.54425 0,-1.76991 0.66372,-3.76106 3.31858,-0.5531 4.97787,-1.88053 1.76991,-1.43806 1.76991,-4.75664 l 0,-51.99115 -6.8584,0 q -4.5354,0 -6.85841,2.76548 -2.21239,2.76549 -2.76549,9.95576 -0.99557,0.11062 -2.65487,0.11062 -1.54867,0 -3.4292,-0.66372 -0.22124,-3.53982 -0.22124,-8.40708 0,-4.97788 0.77434,-10.73009 l 61.72566,0 z"
         style="font-style:normal;font-variant:normal;font-weight:bold;font-stretch:normal;font-size:110.61946869px;font-family:Halant;-inkscape-font-specification:'Halant Bold';fill:#7a0606;fill-opacity:1"
         id="path4855"
         inkscape:connector-curvature="0" />
      <path
         d="m 883.26363,572.05244 0.5531,-5.30973 0,-0.33186 q 1.21681,-0.11062 3.4292,-0.11062 2.21239,0 4.31416,0.5531 0.5531,7.30088 0.5531,12.72124 0,5.42035 -0.11062,8.73894 l -57.63275,0 q 0,-0.77434 0,-2.54425 0,-1.76991 0.66372,-3.76106 3.42921,-0.5531 5.19912,-1.88053 1.76991,-1.43806 1.76991,-4.75664 l 0,-51.54867 q -2.76549,-1.21682 -7.85398,-1.21682 0,-0.66372 0,-2.21239 0,-1.65929 0.55309,-3.9823 l 56.52655,0 q 0,2.32301 0,7.9646 0,5.53098 -0.66372,12.61062 -2.65486,0.22124 -7.4115,0.22124 -0.77434,-8.18584 -1.76991,-10.17699 -1.65929,-3.76106 -6.85841,-3.76106 l -14.82301,0 0,25.5531 14.60177,-1.54868 4.86726,0 0,9.73452 -4.86726,0 -14.60177,-0.99558 0,25.33186 14.93363,0 q 4.09292,0 6.19469,-2.43363 0.88496,-0.99557 1.54867,-3.20796 0.66372,-2.32301 0.88496,-3.65045 z"
         style="font-style:normal;font-variant:normal;font-weight:bold;font-stretch:normal;font-size:110.61946869px;font-family:Halant;-inkscape-font-specification:'Halant Bold';fill:#7a0606;fill-opacity:1"
         id="path4857"
         inkscape:connector-curvature="0" />
    </g>
    <g
       style="font-style:normal;font-weight:normal;font-size:38.10394669px;line-height:125%;font-family:sans-serif;text-align:end;letter-spacing:0px;word-spacing:0px;text-anchor:end;fill:#cccccc;fill-opacity:1;stroke:none;stroke-width:1px;stroke-linecap:butt;stroke-linejoin:miter;stroke-opacity:1"
       id="text4819">
      <path
         d="m 322.14025,394.95474 2.94925,0 q 9.12208,0 9.12208,-8.02469 0,-8.09327 -9.12208,-8.09327 l -2.94925,0 0,16.11796 z m 0,-20.43895 4.8011,0 q 2.40055,-1.02881 3.90946,-3.08642 1.57751,-2.1262 1.57751,-5.21262 0,-3.15501 -2.1262,-5.21262 -2.1262,-2.05762 -5.69273,-2.05762 l -2.46914,0 0,15.56928 z m 2.46914,-19.82168 q 9.80795,0 14.40329,3.36077 4.66392,3.29218 4.66392,8.71056 0,6.24143 -6.10425,9.12209 7.81893,2.81207 7.81893,11.04252 0,5.96708 -5.00686,9.19068 -5.00686,3.155 -14.81481,3.155 l -19.06722,0 q 0,-0.54869 0,-1.5775 0,-1.09739 0.34294,-2.33196 2.1262,-0.34294 3.22359,-1.16598 1.0974,-0.89164 1.0974,-2.94925 l 0,-31.96159 q -1.78327,-0.75446 -4.8011,-0.75446 -0.0686,-0.48011 -0.0686,-1.37174 0,-0.89163 0.34294,-2.46914 l 17.96982,0 z"
         style="font-style:normal;font-variant:normal;font-weight:bold;font-stretch:normal;font-size:68.5871048px;font-family:Halant;-inkscape-font-specification:'Halant Bold';fill:#cccccc"
         id="path4860"
         inkscape:connector-curvature="0" />
      <path
         d="m 385.31969,374.24144 0,18.72428 q 2.05762,0.48011 3.90947,0.48011 0.13717,1.09739 0.13717,2.05761 0,0.96022 0,1.50892 -5.96708,2.46913 -13.64883,2.60631 -0.61729,-3.29218 -0.82305,-6.03567 -3.49794,6.44719 -10.83676,6.44719 -4.8011,0 -7.75034,-2.88066 -2.88066,-2.88066 -2.88066,-7.9561 l 0,-15.9808 q -1.02881,-0.0686 -2.05761,-0.0686 -1.02881,0 -1.85186,0 0.13718,-2.40055 0.61729,-3.7723 6.79012,-2.33196 13.92318,-2.60631 l 0,21.05625 q 0,2.67489 1.23457,3.97805 1.23457,1.30315 3.22359,1.30315 3.97805,0 6.17284,-6.17284 l 0,-10.28806 q 0,-2.60631 -0.75446,-3.90947 -0.75446,-1.30315 -2.67489,-1.92044 0.27434,-1.50891 0.82304,-2.46913 4.52675,-1.71468 9.46502,-1.71468 1.98903,0 4.04664,0.27435 -0.27435,2.46913 -0.27435,7.33882 z"
         style="font-style:normal;font-variant:normal;font-weight:bold;font-stretch:normal;font-size:68.5871048px;font-family:Halant;-inkscape-font-specification:'Halant Bold';fill:#cccccc"
         id="path4862"
         inkscape:connector-curvature="0" />
      <path
         d="m 421.04393,366.76544 q 0.34294,1.16599 0.34294,3.7723 0,2.60631 -0.75446,6.03566 -10.49383,0 -11.59122,7.13306 l 0,10.42524 q 2.46913,0.96022 5.89849,1.23457 0,0.41152 0,1.37174 0,0.96022 -0.27435,2.53772 l -20.91907,0 q 0,-0.54869 0,-1.5775 0,-1.09739 0.34294,-2.33196 2.1262,-0.34294 3.22359,-1.16598 1.0974,-0.89164 1.0974,-2.88066 l 0,-17.69547 q -1.02881,-0.13718 -2.26338,-0.13718 -1.16598,0 -2.33196,0.0686 0.13718,-2.40055 0.61729,-3.77229 6.24142,-2.26338 13.64883,-2.6749 0.82304,4.73251 0.96022,9.60219 1.64609,-4.38957 4.8011,-7.13305 3.22359,-2.81208 7.20164,-2.81208 z"
         style="font-style:normal;font-variant:normal;font-weight:bold;font-stretch:normal;font-size:68.5871048px;font-family:Halant;-inkscape-font-specification:'Halant Bold';fill:#cccccc"
         id="path4864"
         inkscape:connector-curvature="0" />
      <path
         d="m 438.32574,358.39782 q 0,2.46913 -1.71468,4.2524 -1.71468,1.71468 -4.2524,1.71468 -2.46913,0 -4.2524,-1.71468 -1.78326,-1.78327 -1.78326,-4.2524 0,-2.53772 1.78326,-4.2524 1.78327,-1.78327 4.2524,-1.78327 2.53772,0 4.2524,1.78327 1.71468,1.71468 1.71468,4.2524 z m 3.22359,36.96845 q 0,0.41152 0,1.37174 0,0.96022 -0.27434,2.53772 l -18.86146,0 q 0,-0.54869 0,-1.5775 0,-1.09739 0.34294,-2.33196 2.1262,-0.34294 3.22359,-1.16598 1.09739,-0.89164 1.09739,-2.88066 l 0,-17.76406 q -1.0288,-0.13718 -2.26337,-0.13718 -1.16598,0 -2.33196,0.0686 0.13717,-2.40055 0.61728,-3.84088 6.65295,-2.26337 14.60906,-2.60631 l 0,27.64061 q 1.64609,0.68587 3.84087,0.68587 z"
         style="font-style:normal;font-variant:normal;font-weight:bold;font-stretch:normal;font-size:68.5871048px;font-family:Halant;-inkscape-font-specification:'Halant Bold';fill:#cccccc"
         id="path4866"
         inkscape:connector-curvature="0" />
      <path
         d="m 459.02833,400.03019 q -4.2524,0 -6.85871,-2.53772 -2.53772,-2.60631 -2.53772,-7.61317 l 0,-16.87243 q -1.85186,-0.27435 -4.2524,-0.27435 -0.0686,-0.61728 -0.0686,-1.50891 0,-0.89164 0.20576,-1.92044 1.44033,-0.68587 4.04664,-1.37174 l 8.5048,-10.90535 2.19479,0.61728 0,10.0823 q 4.38957,-0.13717 8.09328,-0.68587 0,3.42936 -0.68588,5.55556 l -7.4074,0 0.0686,17.07819 q 0,1.92044 0.61729,2.67489 0.68587,0.75446 2.40055,0.75446 1.78326,0 4.18381,-1.64609 l 1.85185,2.33196 q -4.45816,6.24143 -10.35665,6.24143 z"
         style="font-style:normal;font-variant:normal;font-weight:bold;font-stretch:normal;font-size:68.5871048px;font-family:Halant;-inkscape-font-specification:'Halant Bold';fill:#cccccc"
         id="path4868"
         inkscape:connector-curvature="0" />
      <path
         d="m 488.02459,358.39782 q 0,2.46913 -1.71468,4.2524 -1.71467,1.71468 -4.2524,1.71468 -2.46913,0 -4.2524,-1.71468 -1.78326,-1.78327 -1.78326,-4.2524 0,-2.53772 1.78326,-4.2524 1.78327,-1.78327 4.2524,-1.78327 2.53773,0 4.2524,1.78327 1.71468,1.71468 1.71468,4.2524 z m 3.2236,36.96845 q 0,0.41152 0,1.37174 0,0.96022 -0.27435,2.53772 l -18.86146,0 q 0,-0.54869 0,-1.5775 0,-1.09739 0.34294,-2.33196 2.1262,-0.34294 3.22359,-1.16598 1.0974,-0.89164 1.0974,-2.88066 l 0,-17.76406 q -1.02881,-0.13718 -2.26338,-0.13718 -1.16598,0 -2.33196,0.0686 0.13718,-2.40055 0.61729,-3.84088 6.65294,-2.26337 14.60905,-2.60631 l 0,27.64061 q 1.64609,0.68587 3.84088,0.68587 z"
         style="font-style:normal;font-variant:normal;font-weight:bold;font-stretch:normal;font-size:68.5871048px;font-family:Halant;-inkscape-font-specification:'Halant Bold';fill:#cccccc"
         id="path4870"
         inkscape:connector-curvature="0" />
      <path
         d="m 506.12087,395.36627 q 2.05761,0 3.29218,-0.96022 1.30316,-1.02881 1.30316,-2.60631 0,-1.64609 -2.1262,-3.2236 -2.1262,-1.64609 -4.73251,-2.81207 -2.53773,-1.23457 -4.66393,-3.63511 -2.1262,-2.40055 -2.1262,-5.55556 0,-4.86968 3.42936,-7.33882 3.49794,-2.46914 9.73937,-2.46914 3.97805,0 8.43621,1.44033 0,0.96022 0,3.29218 0,2.33197 -0.41152,5.76132 -1.78327,0 -3.36077,-0.34293 0.13718,-0.82305 0.13718,-1.57751 0,-4.2524 -4.45817,-4.2524 -1.5775,0 -2.67489,0.89163 -1.02881,0.82305 -1.02881,2.53773 0,1.64609 2.19479,3.155 2.26337,1.44033 4.86968,2.53773 2.6749,1.0288 4.86969,3.49794 2.26337,2.46914 2.26337,5.96708 0,4.52675 -4.04664,7.54458 -3.97805,2.94924 -10.0823,2.94924 -6.10426,0 -10.49383,-1.30315 -0.0686,-1.44033 -0.0686,-3.77229 0,-2.40055 0.34294,-5.96708 1.37174,0 3.56653,0.27435 0,0.20576 0,1.23457 0,1.0288 0.48011,2.26337 0.54869,1.23457 1.71467,1.78327 1.57751,0.68587 3.63512,0.68587 z"
         style="font-style:normal;font-variant:normal;font-weight:bold;font-stretch:normal;font-size:68.5871048px;font-family:Halant;-inkscape-font-specification:'Halant Bold';fill:#cccccc"
         id="path4872"
         inkscape:connector-curvature="0" />
      <path
         d="m 577.4429,382.19754 -28.87517,0 -3.56653,-7.13306 0,-0.68587 28.87517,0 3.56653,7.20165 0,0.61728 z"
         style="font-style:normal;font-variant:normal;font-weight:bold;font-stretch:normal;font-size:68.5871048px;font-family:Halant;-inkscape-font-specification:'Halant Bold';fill:#cccccc"
         id="path4874"
         inkscape:connector-curvature="0" />
      <path
         d="m 618.6573,374.72155 3.90946,0 q 3.36077,0 5.28121,-1.92044 1.98903,-1.98903 1.98903,-5.96708 0,-3.97805 -1.98903,-5.89849 -1.92044,-1.92044 -5.28121,-1.92044 l -3.90946,0 0,15.70645 z m 27.50343,20.23319 q 0,2.26338 -0.41153,4.32099 l -13.37448,0 -8.5048,-18.03841 q -1.02881,-2.26337 -3.01784,-2.26337 l -2.19478,0 0,15.15775 q 2.60631,0.96022 5.89849,1.23457 0.0686,0.34293 0.0686,1.23457 0,0.82304 -0.34294,2.67489 l -21.33059,0 q 0,-0.48011 0,-1.5775 0,-1.09739 0.41152,-2.33196 2.1262,-0.34294 3.2236,-1.16598 1.09739,-0.89164 1.09739,-2.94925 l 0,-31.96159 q -1.71468,-0.75446 -4.86968,-0.75446 0,-0.41152 0,-1.37174 0,-1.02881 0.34293,-2.46914 l 21.262,0 q 7.95611,0 12.48286,3.2236 4.59533,3.15501 4.59533,8.91632 0,4.04664 -2.40055,6.9273 -2.33196,2.81207 -6.72153,4.18381 2.19479,1.30316 3.90946,4.66393 l 3.97806,7.9561 q 1.30315,2.60631 2.53772,3.49794 1.30315,0.89163 3.36077,0.89163 z"
         style="font-style:normal;font-variant:normal;font-weight:bold;font-stretch:normal;font-size:68.5871048px;font-family:Halant;-inkscape-font-specification:'Halant Bold';fill:#cccccc"
         id="path4876"
         inkscape:connector-curvature="0" />
      <path
         d="m 678.40847,362.58163 q -2.1262,-4.45816 -6.10425,-4.45816 -3.97805,0 -5.76131,4.32099 -1.71468,4.32098 -1.71468,13.92318 0,10.76817 1.98902,15.15775 2.05762,4.32099 6.03567,4.32099 3.97805,0 5.8299,-4.18382 1.85186,-4.18381 1.85186,-13.92318 0,-10.69959 -2.12621,-15.15775 z m 9.32785,31.27572 q -5.89849,6.3786 -15.15775,6.3786 -9.25926,0 -15.08916,-6.31001 -5.82991,-6.3786 -5.82991,-16.80384 0,-10.42524 5.82991,-16.87243 5.8299,-6.51578 15.08916,-6.51578 9.25926,0 15.15775,6.51578 5.96708,6.44719 5.96708,16.87243 0,10.35665 -5.96708,16.73525 z"
         style="font-style:normal;font-variant:normal;font-weight:bold;font-stretch:normal;font-size:68.5871048px;font-family:Halant;-inkscape-font-specification:'Halant Bold';fill:#cccccc"
         id="path4878"
         inkscape:connector-curvature="0" />
    </g>
  </g>
</svg>
