<?xml version="1.0" encoding="UTF-8" standalone="no"?>
<!-- Created with Inkscape (http://www.inkscape.org/) -->

<svg
   xmlns:dc="http://purl.org/dc/elements/1.1/"
   xmlns:cc="http://creativecommons.org/ns#"
   xmlns:rdf="http://www.w3.org/1999/02/22-rdf-syntax-ns#"
   xmlns:svg="http://www.w3.org/2000/svg"
   xmlns="http://www.w3.org/2000/svg"
   xmlns:sodipodi="http://sodipodi.sourceforge.net/DTD/sodipodi-0.dtd"
   xmlns:inkscape="http://www.inkscape.org/namespaces/inkscape"
   width="1000"
   height="1000"
   viewBox="0 0 1000 1000"
   id="svg4144"
   version="1.1"
   inkscape:version="0.91 r13725"
   sodipodi:docname="escudo-crj.svg"
   inkscape:export-filename="/home/diogocampos/Downloads/atletico.png"
   inkscape:export-xdpi="90"
   inkscape:export-ydpi="90">
  <defs
     id="defs4146">
    <linearGradient
       id="linearGradient2503-4-2-6">
      <stop
         offset="0"
         style="stop-color:#585858"
         id="stop2505-8-4-8" />
      <stop
         offset="1"
         style="stop-color:#f9f9f9"
         id="stop2507-8-8-6" />
    </linearGradient>
    <linearGradient
       id="linearGradient10097-0">
      <stop
         offset="0"
         style="stop-color:#232323"
         id="stop10099-3" />
      <stop
         offset=".23462"
         style="stop-color:#282828"
         id="stop10111-7" />
      <stop
         offset=".41869"
         style="stop-color:#313131"
         id="stop10109-2" />
      <stop
         offset=".61685"
         style="stop-color:#3c3c3c"
         id="stop10107-0" />
      <stop
         offset=".79369"
         style="stop-color:#3a3a3a"
         id="stop10105-9" />
      <stop
         offset="1"
         style="stop-color:#2f2f2f"
         id="stop10101-9" />
    </linearGradient>
  </defs>
  <sodipodi:namedview
     id="base"
     pagecolor="#ffffff"
     bordercolor="#666666"
     borderopacity="1.0"
     inkscape:pageopacity="0.0"
     inkscape:pageshadow="2"
     inkscape:zoom="0.46"
     inkscape:cx="140.21739"
     inkscape:cy="495.65217"
     inkscape:document-units="px"
     inkscape:current-layer="layer1"
     showgrid="false"
     units="px"
     inkscape:showpageshadow="false"
     inkscape:window-width="1280"
     inkscape:window-height="656"
     inkscape:window-x="0"
     inkscape:window-y="27"
     inkscape:window-maximized="1"
     showguides="false"
     inkscape:guide-bbox="true"
     fit-margin-top="0"
     fit-margin-left="0"
     fit-margin-right="0"
     fit-margin-bottom="0">
    <sodipodi:guide
       position="573.91304,100"
       orientation="0,1"
       id="guide4159"
       inkscape:label=""
       inkscape:color="rgb(0,0,255)" />
    <sodipodi:guide
       position="200,200"
       orientation="0,1"
       id="guide4161"
       inkscape:label=""
       inkscape:color="rgb(0,0,255)" />
    <sodipodi:guide
       position="-115.21739,300"
       orientation="0,1"
       id="guide4163"
       inkscape:label=""
       inkscape:color="rgb(0,0,255)" />
    <sodipodi:guide
       position="-171.73913,400"
       orientation="0,1"
       id="guide4165"
       inkscape:label=""
       inkscape:color="rgb(0,0,255)" />
    <sodipodi:guide
       position="-130.43478,500"
       orientation="0,1"
       id="guide4167"
       inkscape:label=""
       inkscape:color="rgb(255,248,0)" />
    <sodipodi:guide
       position="-106.52174,600"
       orientation="0,1"
       id="guide4169"
       inkscape:label=""
       inkscape:color="rgb(0,0,255)" />
    <sodipodi:guide
       position="-45.652174,900"
       orientation="0,1"
       id="guide4171"
       inkscape:label=""
       inkscape:color="rgb(0,0,255)" />
    <sodipodi:guide
       position="-32.608696,700"
       orientation="0,1"
       id="guide4173"
       inkscape:label=""
       inkscape:color="rgb(0,0,255)" />
    <sodipodi:guide
       position="-39.130435,800"
       orientation="0,1"
       id="guide4175"
       inkscape:label=""
       inkscape:color="rgb(0,0,255)" />
    <sodipodi:guide
       position="100,980.43478"
       orientation="1,0"
       id="guide4177"
       inkscape:label=""
       inkscape:color="rgb(0,0,255)" />
    <sodipodi:guide
       position="200,1160.8696"
       orientation="1,0"
       id="guide4179"
       inkscape:label=""
       inkscape:color="rgb(0,0,255)" />
    <sodipodi:guide
       position="300,1108.6957"
       orientation="1,0"
       id="guide4181"
       inkscape:label=""
       inkscape:color="rgb(0,0,255)" />
    <sodipodi:guide
       position="400,1078.2609"
       orientation="1,0"
       id="guide4183"
       inkscape:label=""
       inkscape:color="rgb(0,0,255)" />
    <sodipodi:guide
       position="500,1143.4783"
       orientation="1,0"
       id="guide4185"
       inkscape:label=""
       inkscape:color="rgb(255,245,0)" />
    <sodipodi:guide
       position="600,1108.6957"
       orientation="1,0"
       id="guide4187"
       inkscape:label=""
       inkscape:color="rgb(0,0,255)" />
    <sodipodi:guide
       position="700,1095.6522"
       orientation="1,0"
       id="guide4189"
       inkscape:label=""
       inkscape:color="rgb(0,0,255)" />
    <sodipodi:guide
       position="900,1504.3478"
       orientation="1,0"
       id="guide4193"
       inkscape:label=""
       inkscape:color="rgb(0,0,255)" />
    <sodipodi:guide
       position="100,700"
       orientation="1,0"
       id="guide4535" />
    <sodipodi:guide
       position="800,1048.3627"
       orientation="1,0"
       id="guide4348"
       inkscape:label=""
       inkscape:color="rgb(0,0,255)" />
  </sodipodi:namedview>
  <metadata
     id="metadata4149">
    <rdf:RDF>
      <cc:Work
         rdf:about="">
        <dc:format>image/svg+xml</dc:format>
        <dc:type
           rdf:resource="http://purl.org/dc/dcmitype/StillImage" />
        <dc:title></dc:title>
      </cc:Work>
    </rdf:RDF>
  </metadata>
  <g
     inkscape:label="Camada 1"
     inkscape:groupmode="layer"
     id="layer1"
     transform="translate(0,-52.36216)">
    <rect
       style="fill:#ffffff;fill-opacity:1;stroke:#1a1a1a;stroke-width:10;stroke-linecap:round;stroke-linejoin:miter;stroke-miterlimit:4;stroke-dasharray:none;stroke-dashoffset:0;stroke-opacity:1"
       id="rect4500"
       width="990"
       height="990"
       x="5"
       y="57.36216"
       rx="85"
       ry="85" />
    <text
       xml:space="preserve"
       style="font-style:normal;font-weight:normal;font-size:25px;line-height:125%;font-family:sans-serif;letter-spacing:0px;word-spacing:0px;fill:#000000;fill-opacity:1;stroke:none;stroke-width:1px;stroke-linecap:butt;stroke-linejoin:miter;stroke-opacity:1"
       x="354.34784"
       y="652.36218"
       id="text4226"
       sodipodi:linespacing="125%"><tspan
         sodipodi:role="line"
         id="tspan4228"
         x="354.34784"
         y="652.36218" /></text>
    <g
       transform="scale(0.99975487,1.0002452)"
       style="font-style:normal;font-variant:normal;font-weight:normal;font-stretch:normal;font-size:842.49377441px;line-height:125%;font-family:Orbitron;-inkscape-font-specification:Orbitron;text-align:end;letter-spacing:0px;word-spacing:0px;text-anchor:end;fill:#1a1a1a;fill-opacity:1;stroke:none;stroke-width:10;stroke-linecap:butt;stroke-linejoin:miter;stroke-miterlimit:4;stroke-dasharray:none;stroke-opacity:1"
       id="text4412">
      <path
         d="m 790.53413,851.02941 0,-505.49627 68.242,0 0,505.49627 q 0,42.12469 -29.48728,71.61197 -29.48728,29.48728 -71.61197,29.48728 l -404.39701,0 q -42.12469,0 -71.61198,-29.48728 -29.48728,-29.48728 -29.48728,-71.61197 l 0,-48.02215 68.242,0 0,48.02215 q 0,13.4799 9.26743,23.58982 10.10993,9.26744 23.58983,9.26744 l 404.39701,0 q 13.4799,0 22.74733,-9.26744 10.10992,-10.10992 10.10992,-23.58982 z"
         style="font-style:normal;font-variant:normal;font-weight:normal;font-stretch:normal;font-family:Orbitron;-inkscape-font-specification:Orbitron;fill:#1a1a1a;fill-opacity:1;stroke:none;stroke-width:10;stroke-miterlimit:4;stroke-dasharray:none;stroke-opacity:1"
         id="path4186"
         inkscape:connector-curvature="0" />
    </g>
    <g
       transform="scale(0.99975487,1.0002452)"
       style="font-style:normal;font-weight:normal;font-size:842.49377441px;line-height:125%;font-family:sans-serif;text-align:start;letter-spacing:0px;word-spacing:0px;text-anchor:start;fill:#1a1a1a;fill-opacity:1;stroke:none;stroke-width:10;stroke-linecap:butt;stroke-linejoin:miter;stroke-miterlimit:4;stroke-dasharray:none;stroke-opacity:1"
       id="text4416">
      <path
         d="m 746.3796,220.56683 -503.81127,0 q -13.47991,0 -23.58983,10.10992 -9.26743,9.26743 -9.26743,22.74733 l 0,404.39702 q 0,13.4799 9.26743,23.58982 10.10992,9.26743 23.58983,9.26743 l 503.81127,0 0,68.242 -503.81127,0 q -42.12469,0 -71.61198,-29.48728 -29.48728,-29.48729 -29.48728,-71.61197 l 0,-404.39702 q 0,-42.12468 29.48728,-71.61197 29.48729,-29.48728 71.61198,-29.48728 l 503.81127,0 0,68.242 z"
         style="font-style:normal;font-variant:normal;font-weight:normal;font-stretch:normal;font-family:Orbitron;-inkscape-font-specification:Orbitron;text-align:start;text-anchor:start;fill:#1a1a1a;fill-opacity:1;stroke:none;stroke-width:10;stroke-miterlimit:4;stroke-dasharray:none;stroke-opacity:1"
         id="path4180"
         inkscape:connector-curvature="0" />
    </g>
    <g
       transform="scale(0.99975487,1.0002452)"
       style="font-style:normal;font-weight:normal;font-size:410.34060669px;line-height:125%;font-family:sans-serif;text-align:end;letter-spacing:0px;word-spacing:0px;text-anchor:end;fill:#1a1a1a;fill-opacity:1;stroke:none;stroke-width:10;stroke-linecap:butt;stroke-linejoin:miter;stroke-miterlimit:4;stroke-dasharray:none;stroke-opacity:1"
       id="text4420">
      <path
         d="m 745.94477,400.02589 0,84.6734 q 0,22.21629 -15.92866,38.56412 -15.92866,15.92866 -38.56412,15.92866 l -30.59979,0 85.09257,101.44041 0,6.28762 -53.65443,0 -90.54185,-107.72803 -103.11711,0 q -3.3534,0 -9.22185,-0.83835 l 0,108.56638 -45.27093,0 0,-301.38699 247.31339,0 q 22.63546,0 38.56412,16.34784 15.92866,15.92866 15.92866,38.14494 z m -247.31339,93.89526 192.82061,0 q 3.77258,0 6.28763,-2.51506 2.93422,-2.93422 2.93422,-6.7068 l 0,-84.6734 q 0,-3.77257 -2.93422,-6.28763 -2.51505,-2.93422 -6.28763,-2.93422 l -192.82061,0 q -3.77258,0 -6.7068,2.93422 -2.51505,2.51506 -2.51505,6.28763 l 0,84.6734 q 0,3.77258 2.51505,6.7068 2.93422,2.51506 6.7068,2.51506 z"
         style="font-style:normal;font-variant:normal;font-weight:500;font-stretch:normal;font-size:419.17523193px;font-family:Orbitron;-inkscape-font-specification:'Orbitron Medium';fill:#1a1a1a;fill-opacity:1;stroke:none;stroke-width:10;stroke-miterlimit:4;stroke-dasharray:none;stroke-opacity:1"
         id="path4183"
         inkscape:connector-curvature="0" />
    </g>
    <rect
       transform="scale(-1,-1)"
       y="-647.07849"
       x="-423.76489"
       height="301.46051"
       width="43.705479"
       id="rect4424"
       style="fill:#1a1a1a;fill-opacity:1;stroke:none;stroke-width:10;stroke-linecap:round;stroke-linejoin:miter;stroke-miterlimit:4;stroke-dasharray:none;stroke-dashoffset:0;stroke-opacity:1" />
    <rect
       transform="scale(-1,-1)"
       style="fill:#1a1a1a;fill-opacity:1;stroke:none;stroke-width:10;stroke-linecap:round;stroke-linejoin:miter;stroke-miterlimit:4;stroke-dasharray:none;stroke-dashoffset:0;stroke-opacity:1"
       id="rect4426"
       width="43.705479"
       height="301.46051"
       x="-359.79459"
       y="-647.07849" />
    <rect
       transform="scale(-1,-1)"
       y="-647.07849"
       x="-295.82434"
       height="301.46051"
       width="43.705479"
       id="rect4428"
       style="fill:#1a1a1a;fill-opacity:1;stroke:none;stroke-width:10;stroke-linecap:round;stroke-linejoin:miter;stroke-miterlimit:4;stroke-dasharray:none;stroke-dashoffset:0;stroke-opacity:1" />
  </g>
</svg>
