<?xml version="1.0" encoding="UTF-8" standalone="no"?>
<!-- Created with Inkscape (http://www.inkscape.org/) -->

<svg
   xmlns:dc="http://purl.org/dc/elements/1.1/"
   xmlns:cc="http://creativecommons.org/ns#"
   xmlns:rdf="http://www.w3.org/1999/02/22-rdf-syntax-ns#"
   xmlns:svg="http://www.w3.org/2000/svg"
   xmlns="http://www.w3.org/2000/svg"
   xmlns:xlink="http://www.w3.org/1999/xlink"
   xmlns:sodipodi="http://sodipodi.sourceforge.net/DTD/sodipodi-0.dtd"
   xmlns:inkscape="http://www.inkscape.org/namespaces/inkscape"
   width="512"
   height="192.91235"
   viewBox="0 0 512 192.91237"
   id="svg2"
   version="1.1"
   inkscape:version="0.91 r13725"
   sodipodi:docname="logo-aline-em-lugar-algum.svg">
  <defs
     id="defs4" />
  <sodipodi:namedview
     id="base"
     pagecolor="#ffffff"
     bordercolor="#666666"
     borderopacity="1.0"
     inkscape:pageopacity="0.0"
     inkscape:pageshadow="2"
     inkscape:zoom="1.5898438"
     inkscape:cx="277.07125"
     inkscape:cy="94.698183"
     inkscape:document-units="px"
     inkscape:current-layer="layer1"
     showgrid="false"
     fit-margin-top="0"
     fit-margin-left="0"
     fit-margin-right="0"
     fit-margin-bottom="0"
     inkscape:window-width="1280"
     inkscape:window-height="656"
     inkscape:window-x="0"
     inkscape:window-y="27"
     inkscape:window-maximized="1"
     units="px"
     inkscape:showpageshadow="false" />
  <metadata
     id="metadata7">
    <rdf:RDF>
      <cc:Work
         rdf:about="">
        <dc:format>image/svg+xml</dc:format>
        <dc:type
           rdf:resource="http://purl.org/dc/dcmitype/StillImage" />
        <dc:title />
      </cc:Work>
    </rdf:RDF>
  </metadata>
  <g
     inkscape:label="Camada 1"
     inkscape:groupmode="layer"
     id="layer1"
     transform="translate(-47.687687,-210.4887)">
    <g
       style="font-style:normal;font-weight:normal;font-size:50px;line-height:125%;font-family:sans-serif;text-align:end;letter-spacing:0px;word-spacing:0px;text-anchor:end;fill:#260d26;fill-opacity:1;stroke:none;stroke-width:1.00000012;stroke-linecap:butt;stroke-linejoin:miter;stroke-miterlimit:4;stroke-dasharray:none;stroke-opacity:1"
       id="text4136"
       transform="matrix(1.0750815,0,0,1.0750815,-16.169112,-8.6370186)">
      <path
         d="m 69.797157,360.21218 10.500001,0 -5.050001,-12.85 -0.15,0 -5.3,12.85 z m 2,-19.7 q 1.55,0 2.7,0.25 1.2,0.2 2.1,0.75 0.95,0.55 1.7,1.6 0.75,1.05 1.450001,2.7 l 8.4,20.7 q 0.25,0.65 0.55,1.35 0.3,0.65 0.7,1.2 0.4,0.55 0.95,0.95 0.55,0.35 1.35,0.35 0.55,0 0.850001,0.1 0.35,0.1 0.4,0.95 0,0.4 -0.25,0.75 -0.2,0.35 -0.650001,0.35 -1.6,-0.1 -2.8,-0.15 -1.2,0 -2.7,0 -3,0 -6.2,0.15 -0.5,0 -0.7,-0.35 -0.2,-0.35 -0.2,-0.75 0.05,-0.85 0.35,-0.95 0.35,-0.1 0.9,-0.1 1.2,0 1.85,-0.2 0.65,-0.25 0.8,-0.7 0.2,-0.45 0.05,-1.15 -0.1,-0.75 -0.5,-1.8 l -1.7,-4.15 -12.350001,0 q -1.2,3.05 -1.6,4.15 -0.4,1.3 -0.55,2.05 -0.15,0.75 0.15,1.15 0.3,0.4 1.1,0.55 0.85,0.1 2.3,0.1 0.55,0 0.85,0.1 0.35,0.1 0.4,0.95 0,0.4 -0.25,0.75 -0.2,0.35 -0.65,0.35 -1.6,-0.1 -2.8,-0.15 -1.15,0 -2.650001,0 -0.75,0 -1.3,0 -0.55,0 -1.1,0 -0.5,0.05 -1.1,0.05 -0.55,0.05 -1.35,0.1 -0.5,0 -0.7,-0.35 -0.2,-0.35 -0.2,-0.75 0.05,-0.85 0.4,-0.95 0.3,-0.1 0.85,-0.1 1,0 1.6,-0.3 0.65,-0.35 1.05,-0.9 0.45,-0.55 0.75,-1.25 0.3,-0.7 0.6,-1.4 l 8.750001,-20.7 q 0.35,-0.9 0.25,-1.45 -0.1,-0.55 -0.5,-0.9 -0.35,-0.35 -0.95,-0.5 -0.55,-0.2 -1.15,-0.3 -0.75,-0.15 -1,-0.25 -0.25,-0.15 -0.25,-0.9 0,-0.85 0.55,-0.9 0.6,-0.1 1.45,-0.1 z"
         style="font-style:normal;font-variant:normal;font-weight:normal;font-stretch:normal;font-size:50.00000381px;font-family:Alice;-inkscape-font-specification:Alice;fill:#260d26;fill-opacity:1;stroke:none;stroke-width:1.00000012;stroke-miterlimit:4;stroke-dasharray:none;stroke-opacity:1"
         id="path4139"
         inkscape:connector-curvature="0" />
      <path
         d="m 97.514348,342.81218 q 0,-0.65 0,-1.25 0,-0.65 -0.25,-1.1 -0.2,-0.5 -0.75,-0.75 -0.5,-0.3 -1.55,-0.3 -0.450001,0 -0.850001,-0.1 -0.35,-0.15 -0.35,-0.9 0,-0.3 0.2,-0.55 0.2,-0.25 0.600001,-0.35 1.7,-0.25 2.8,-0.5 1.1,-0.3 1.8,-0.5 0.7,-0.25 1.100002,-0.4 0.45,-0.15 0.85,-0.2 0.4,-0.05 0.65,0.15 0.3,0.2 0.3,0.8 l 0,30.35 q 0,0.65 0,1.3 0,0.6 0.2,1.1 0.25,0.45 0.8,0.75 0.55,0.25 1.6,0.25 0.45,0 0.75,0.1 0.35,0.05 0.4,0.8 0,0.4 -0.2,0.7 -0.2,0.3 -0.6,0.3 -1.45,-0.1 -2.7,-0.15 -1.2,0 -2.550002,0 -1.35,0 -2.55,0 -1.2,0.05 -2.65,0.15 -0.400001,0 -0.600001,-0.3 -0.2,-0.3 -0.2,-0.7 0.05,-0.75 0.35,-0.8 0.35,-0.1 0.800001,-0.1 1.05,0 1.55,-0.25 0.55,-0.3 0.75,-0.75 0.25,-0.5 0.25,-1.1 0.05,-0.65 0.05,-1.3 l 0,-24.4 z"
         style="font-style:normal;font-variant:normal;font-weight:normal;font-stretch:normal;font-size:50.00000381px;font-family:Alice;-inkscape-font-specification:Alice;fill:#260d26;fill-opacity:1;stroke:none;stroke-width:1.00000012;stroke-miterlimit:4;stroke-dasharray:none;stroke-opacity:1"
         id="path4141"
         inkscape:connector-curvature="0" />
      <path
         d="m 114.07216,342.81218 q -0.55,0 -1.15,-0.15 -0.55,-0.15 -1.05,-0.5 -0.45,-0.4 -0.8,-0.95 -0.3,-0.6 -0.3,-1.45 0,-0.4 0.2,-0.9 0.25,-0.55 0.7,-1 0.5,-0.45 1.2,-0.75 0.7,-0.3 1.65,-0.3 0.45,0 0.95,0.2 0.5,0.15 0.9,0.55 0.45,0.35 0.7,0.95 0.3,0.55 0.3,1.4 0,1.05 -0.85,2 -0.85,0.9 -2.45,0.9 z m 2.8,24.4 q 0,0.65 0,1.3 0,0.6 0.2,1.1 0.25,0.45 0.8,0.75 0.55,0.25 1.6,0.25 0.45,0 0.75,0.1 0.35,0.05 0.4,0.8 0,0.4 -0.2,0.7 -0.2,0.3 -0.6,0.3 -1.45,-0.1 -2.7,-0.15 -1.2,0 -2.55,0 -1.35,0 -2.55,0 -1.2,0.05 -2.65,0.15 -0.4,0 -0.6,-0.3 -0.2,-0.3 -0.2,-0.7 0.1,-0.75 0.4,-0.8 0.3,-0.1 0.8,-0.1 1.05,0 1.55,-0.25 0.55,-0.3 0.75,-0.75 0.25,-0.5 0.25,-1.1 0,-0.65 0,-1.3 l 0,-11.45 q 0,-0.65 0,-1.25 0,-0.65 -0.25,-1.1 -0.2,-0.5 -0.75,-0.75 -0.5,-0.3 -1.55,-0.3 -0.45,0 -0.85,-0.1 -0.35,-0.15 -0.35,-0.9 0,-0.3 0.2,-0.55 0.2,-0.25 0.6,-0.35 1.7,-0.25 2.8,-0.5 1.1,-0.3 1.8,-0.5 0.7,-0.25 1.1,-0.4 0.45,-0.15 0.85,-0.2 0.4,-0.05 0.65,0.15 0.3,0.2 0.3,0.8 l 0,17.4 z"
         style="font-style:normal;font-variant:normal;font-weight:normal;font-stretch:normal;font-size:50.00000381px;font-family:Alice;-inkscape-font-specification:Alice;fill:#260d26;fill-opacity:1;stroke:none;stroke-width:1.00000012;stroke-miterlimit:4;stroke-dasharray:none;stroke-opacity:1"
         id="path4143"
         inkscape:connector-curvature="0" />
      <path
         d="m 131.61591,352.96218 0.15,0 q 0.75,-0.7 1.5,-1.35 0.75,-0.7 1.65,-1.25 0.95,-0.55 2.1,-0.9 1.2,-0.35 2.80001,-0.35 3.45,0 5.4,2.05 2,2.05 2,5.4 l 0,10.65 q 0,0.65 0,1.3 0,0.6 0.2,1.1 0.25,0.45 0.8,0.75 0.55,0.25 1.6,0.25 0.45,0 0.75,0.1 0.35,0.05 0.4,0.8 0,0.4 -0.2,0.7 -0.2,0.3 -0.6,0.3 -1.45,-0.1 -2.7,-0.15 -1.2,0 -2.55,0 -1.35,0 -2.55,0 -1.2,0.05 -2.65,0.15 -0.4,0 -0.60001,-0.3 -0.2,-0.3 -0.2,-0.7 0.05,-0.75 0.35001,-0.8 0.35,-0.1 0.8,-0.1 1.05,0 1.55,-0.25 0.55,-0.3 0.75,-0.75 0.25,-0.5 0.25,-1.1 0.05,-0.65 0.05,-1.3 l 0,-10.6 q 0,-1.25 -0.45,-2.15 -0.4,-0.9 -1.1,-1.45 -0.65,-0.6 -1.55,-0.85 -0.85001,-0.3 -1.70001,-0.3 -1.3,0 -2.35,0.4 -1.05,0.35 -1.85,0.9 -0.75,0.55 -1.3,1.15 -0.5,0.55 -0.7,1 l 0,11.9 q 0,0.65 0,1.3 0,0.6 0.2,1.1 0.25,0.45 0.8,0.75 0.55,0.25 1.6,0.25 0.45,0 0.75,0.1 0.35,0.05 0.4,0.8 0,0.4 -0.2,0.7 -0.2,0.3 -0.6,0.3 -1.45,-0.1 -2.7,-0.15 -1.2,0 -2.55,0 -1.35,0 -2.55,0 -1.2,0.05 -2.65,0.15 -0.4,0 -0.6,-0.3 -0.2,-0.3 -0.2,-0.7 0.1,-0.75 0.4,-0.8 0.3,-0.1 0.8,-0.1 1.05,0 1.55,-0.25 0.55,-0.3 0.75,-0.75 0.25,-0.5 0.25,-1.1 0,-0.65 0,-1.3 l 0,-11.45 q 0,-0.65 0,-1.25 0,-0.65 -0.25,-1.1 -0.2,-0.5 -0.75,-0.75 -0.5,-0.3 -1.55,-0.3 -0.45,0 -0.85,-0.1 -0.35,-0.15 -0.35,-0.9 0,-0.3 0.2,-0.55 0.2,-0.25 0.6,-0.35 1.7,-0.25 2.8,-0.5 1.1,-0.3 1.8,-0.5 0.7,-0.25 1.1,-0.4 0.4,-0.15 0.8,-0.2 0.4,-0.05 0.65,0.15 0.3,0.2 0.3,0.8 l 0,3.15 z"
         style="font-style:normal;font-variant:normal;font-weight:normal;font-stretch:normal;font-size:50.00000381px;font-family:Alice;-inkscape-font-specification:Alice;fill:#260d26;fill-opacity:1;stroke:none;stroke-width:1.00000012;stroke-miterlimit:4;stroke-dasharray:none;stroke-opacity:1"
         id="path4145"
         inkscape:connector-curvature="0" />
      <path
         d="m 166.80107,358.46218 q 1.2,0 1.9,-0.45 0.7,-0.5 0.8,-1.65 0,-1.05 -0.3,-2.05 -0.3,-1 -0.9,-1.75 -0.6,-0.8 -1.5,-1.25 -0.9,-0.45 -2.1,-0.45 -2.55,0 -4.2,2 -1.65,2 -1.85,5.6 l 8.15,0 z m 7.75,9.25 q -1.55,2.45 -3.9,3.85 -2.35,1.4 -5.4,1.4 -2.9,0 -5.1,-0.95 -2.2,-0.95 -3.65,-2.6 -1.45,-1.65 -2.2,-3.85 -0.75,-2.2 -0.75,-4.65 0,-2.15 0.75,-4.25 0.8,-2.15 2.25,-3.8 1.45,-1.7 3.5,-2.7 2.05,-1.05 4.65,-1.05 2.3,0 4,0.65 1.75,0.6 2.9,1.75 1.2,1.1 1.85,2.65 0.7,1.55 0.85,3.35 0,1.75 -1,2.3 -0.95,0.55 -2.5,0.55 l -12.15,0 q 0,2.2 0.45,4.05 0.45,1.85 1.4,3.2 0.95,1.35 2.45,2.1 1.5,0.75 3.6,0.75 2.1,0 3.6,-0.9 1.5,-0.9 2.9,-3.15 0.4,-0.5 1.1,-0.05 0.4,0.25 0.5,0.65 0.1,0.4 -0.1,0.7 z"
         style="font-style:normal;font-variant:normal;font-weight:normal;font-stretch:normal;font-size:50.00000381px;font-family:Alice;-inkscape-font-specification:Alice;fill:#260d26;fill-opacity:1;stroke:none;stroke-width:1.00000012;stroke-miterlimit:4;stroke-dasharray:none;stroke-opacity:1"
         id="path4147"
         inkscape:connector-curvature="0" />
      <path
         d="m 203.03154,358.46218 q 1.2,0 1.9,-0.45 0.7,-0.5 0.8,-1.65 0,-1.05 -0.3,-2.05 -0.3,-1 -0.9,-1.75 -0.6,-0.8 -1.5,-1.25 -0.9,-0.45 -2.1,-0.45 -2.55,0 -4.2,2 -1.65,2 -1.85,5.6 l 8.15,0 z m 7.75,9.25 q -1.55,2.45 -3.9,3.85 -2.35,1.4 -5.4,1.4 -2.9,0 -5.1,-0.95 -2.2,-0.95 -3.65,-2.6 -1.45,-1.65 -2.2,-3.85 -0.75,-2.2 -0.75,-4.65 0,-2.15 0.75,-4.25 0.8,-2.15 2.25,-3.8 1.45,-1.7 3.5,-2.7 2.05,-1.05 4.65,-1.05 2.3,0 4,0.65 1.75,0.6 2.9,1.75 1.2,1.1 1.85,2.65 0.7,1.55 0.85,3.35 0,1.75 -1,2.3 -0.95,0.55 -2.5,0.55 l -12.15,0 q 0,2.2 0.45,4.05 0.45,1.85 1.4,3.2 0.95,1.35 2.45,2.1 1.5,0.75 3.6,0.75 2.1,0 3.6,-0.9 1.5,-0.9 2.9,-3.15 0.4,-0.5 1.1,-0.05 0.4,0.25 0.5,0.65 0.1,0.4 -0.1,0.7 z"
         style="font-style:normal;font-variant:normal;font-weight:normal;font-stretch:normal;font-size:50.00000381px;font-family:Alice;-inkscape-font-specification:Alice;fill:#260d26;fill-opacity:1;stroke:none;stroke-width:1.00000012;stroke-miterlimit:4;stroke-dasharray:none;stroke-opacity:1"
         id="path4149"
         inkscape:connector-curvature="0" />
      <path
         d="m 222.7792,352.96218 0.15,0 q 0.75,-0.7 1.45,-1.35 0.7,-0.7 1.55,-1.25 0.85,-0.55 1.95,-0.9 1.15,-0.35 2.75,-0.35 2.45,0 4.15,1.05 1.75,1 2.6,2.8 l 0.1,0 q 0.75,-0.7 1.55,-1.35 0.8,-0.7 1.75,-1.25 1,-0.55 2.2,-0.9 1.2,-0.35 2.80001,-0.35 3.45,0 5.4,2.05 2,2.05 2,5.4 l 0,10.65 q 0,0.65 0,1.3 0,0.6 0.2,1.1 0.25,0.45 0.8,0.75 0.55,0.25 1.6,0.25 0.45,0 0.75,0.1 0.35,0.05 0.4,0.8 0,0.4 -0.2,0.7 -0.2,0.3 -0.6,0.3 -1.45,-0.1 -2.7,-0.15 -1.2,0 -2.55,0 -1.35,0 -2.55,0 -1.2,0.05 -2.65,0.15 -0.4,0 -0.6,-0.3 -0.20001,-0.3 -0.20001,-0.7 0.05,-0.75 0.35001,-0.8 0.35,-0.1 0.8,-0.1 1.05,0 1.55,-0.25 0.55,-0.3 0.75,-0.75 0.25,-0.5 0.25,-1.1 0.05,-0.65 0.05,-1.3 l 0,-10.6 q 0,-1.25 -0.45,-2.15 -0.4,-0.9 -1.1,-1.45 -0.65,-0.6 -1.55,-0.85 -0.85001,-0.3 -1.70001,-0.3 -1.3,0 -2.3,0.4 -1,0.35 -1.7,0.9 -0.7,0.55 -1.15,1.15 -0.45,0.55 -0.65,1 l 0,11.9 q 0,0.65 -0.05,1.3 0,0.6 0.2,1.1 0.2,0.45 0.7,0.75 0.5,0.25 1.55,0.25 0.5,0 0.8,0.1 0.3,0.05 0.35,0.8 0,0.4 -0.2,0.7 -0.2,0.3 -0.6,0.3 -1.45,-0.1 -2.6,-0.15 -1.15,0 -2.5,0 -1.3,0 -2.45,0 -1.1,0.05 -2.55,0.15 -0.4,0 -0.6,-0.3 -0.2,-0.3 -0.2,-0.7 0.05,-0.75 0.35,-0.8 0.3,-0.1 0.8,-0.1 1.05,0 1.55,-0.25 0.5,-0.3 0.7,-0.75 0.2,-0.5 0.15,-1.1 0,-0.65 0,-1.3 l 0,-10.6 q 0,-1.25 -0.45,-2.15 -0.4,-0.9 -1.1,-1.45 -0.65,-0.6 -1.5,-0.85 -0.85,-0.3 -1.7,-0.3 -1.3,0 -2.3,0.4 -1,0.35 -1.75,0.9 -0.7,0.55 -1.15,1.15 -0.45,0.55 -0.65,1 l 0,11.9 q 0,0.65 0,1.3 0,0.6 0.2,1.1 0.25,0.45 0.8,0.75 0.55,0.25 1.6,0.25 0.45,0 0.75,0.1 0.35,0.05 0.4,0.8 0,0.4 -0.2,0.7 -0.2,0.3 -0.6,0.3 -1.45,-0.1 -2.7,-0.15 -1.2,0 -2.55,0 -1.35,0 -2.55,0 -1.2,0.05 -2.65,0.15 -0.4,0 -0.6,-0.3 -0.2,-0.3 -0.2,-0.7 0.05,-0.75 0.35,-0.8 0.35,-0.1 0.8,-0.1 1.05,0 1.55,-0.25 0.55,-0.3 0.75,-0.75 0.25,-0.5 0.25,-1.1 0.05,-0.65 0.05,-1.3 l 0,-11.45 q 0,-0.65 0,-1.25 0,-0.65 -0.25,-1.1 -0.2,-0.5 -0.75,-0.75 -0.5,-0.3 -1.55,-0.3 -0.45,0 -0.85,-0.1 -0.35,-0.15 -0.35,-0.9 0,-0.3 0.2,-0.55 0.2,-0.25 0.6,-0.35 1.7,-0.25 2.8,-0.5 1.1,-0.3 1.8,-0.5 0.7,-0.25 1.1,-0.4 0.4,-0.15 0.8,-0.2 0.4,-0.05 0.65,0.15 0.3,0.2 0.3,0.8 l 0,3.15 z"
         style="font-style:normal;font-variant:normal;font-weight:normal;font-stretch:normal;font-size:50.00000381px;font-family:Alice;-inkscape-font-specification:Alice;fill:#260d26;fill-opacity:1;stroke:none;stroke-width:1.00000012;stroke-miterlimit:4;stroke-dasharray:none;stroke-opacity:1"
         id="path4151"
         inkscape:connector-curvature="0" />
      <path
         d="m 273.68623,342.81218 q 0,-0.65 0,-1.25 0,-0.65 -0.25,-1.1 -0.2,-0.5 -0.75,-0.75 -0.5,-0.3 -1.55,-0.3 -0.45,0 -0.85,-0.1 -0.35,-0.15 -0.35,-0.9 0,-0.3 0.2,-0.55 0.2,-0.25 0.6,-0.35 1.7,-0.25 2.8,-0.5 1.1,-0.3 1.8,-0.5 0.7,-0.25 1.1,-0.4 0.45,-0.15 0.85,-0.2 0.4,-0.05 0.65,0.15 0.3,0.2 0.3,0.8 l 0,30.35 q 0,0.65 0,1.3 0,0.6 0.2,1.1 0.25,0.45 0.8,0.75 0.55,0.25 1.6,0.25 0.45,0 0.75,0.1 0.35,0.05 0.4,0.8 0,0.4 -0.2,0.7 -0.2,0.3 -0.6,0.3 -1.45,-0.1 -2.7,-0.15 -1.2,0 -2.55,0 -1.35,0 -2.55,0 -1.2,0.05 -2.65,0.15 -0.4,0 -0.6,-0.3 -0.2,-0.3 -0.2,-0.7 0.05,-0.75 0.35,-0.8 0.35,-0.1 0.8,-0.1 1.05,0 1.55,-0.25 0.55,-0.3 0.75,-0.75 0.25,-0.5 0.25,-1.1 0.05,-0.65 0.05,-1.3 l 0,-24.4 z"
         style="font-style:normal;font-variant:normal;font-weight:normal;font-stretch:normal;font-size:50.00000381px;font-family:Alice;-inkscape-font-specification:Alice;fill:#260d26;fill-opacity:1;stroke:none;stroke-width:1.00000012;stroke-miterlimit:4;stroke-dasharray:none;stroke-opacity:1"
         id="path4153"
         inkscape:connector-curvature="0" />
      <path
         d="m 307.45108,367.61218 q 0,2.95 3.95,2.95 0.55,0 0.7,0.3 0.15,0.3 0.15,0.65 0,0.7 -0.85,0.85 l -8.05,0.55 q -0.4,0 -0.45,-0.3 0,-0.3 0,-0.7 l 0,-2.8 -0.1,0 q -0.75,0.7 -1.5,1.4 -0.75,0.65 -1.7,1.2 -0.9,0.55 -2.1,0.9 -1.2,0.35 -2.75,0.35 -3.45,0 -5.45,-2.05 -1.95,-2.05 -1.95,-5.4 l 0,-9.25 q 0,-0.65 0,-1.25 0,-0.65 -0.25,-1.1 -0.2,-0.5 -0.75,-0.75 -0.5,-0.3 -1.55,-0.3 -0.45,0 -0.85,-0.1 -0.35,-0.15 -0.35,-0.9 0,-0.3 0.2,-0.55 0.2,-0.25 0.6,-0.35 1.7,-0.25 2.8,-0.5 1.1,-0.3 1.8,-0.5 0.7,-0.25 1.1,-0.4 0.45,-0.15 0.85,-0.2 0.4,-0.05 0.65,0.15 0.3,0.2 0.3,0.8 l 0,15.15 q 0,1.25 0.4,2.15 0.45,0.9 1.1,1.5 0.7,0.55 1.55,0.85 0.9,0.25 1.75,0.25 1.3,0 2.35,-0.35 1.05,-0.4 1.85,-0.95 0.8,-0.55 1.3,-1.1 0.5,-0.6 0.7,-1.05 l 0,-10.5 q 0,-0.65 0,-1.25 0,-0.65 -0.25,-1.1 -0.2,-0.5 -0.75,-0.75 -0.5,-0.3 -1.55,-0.3 -0.45,0 -0.85,-0.1 -0.35,-0.15 -0.35,-0.9 0,-0.3 0.2,-0.55 0.2,-0.25 0.6,-0.35 1.7,-0.25 2.8,-0.5 1.1,-0.3 1.8,-0.5 0.7,-0.25 1.1,-0.4 0.45,-0.15 0.85,-0.2 0.4,-0.05 0.65,0.15 0.3,0.2 0.3,0.8 l 0,17.3 z"
         style="font-style:normal;font-variant:normal;font-weight:normal;font-stretch:normal;font-size:50.00000381px;font-family:Alice;-inkscape-font-specification:Alice;fill:#260d26;fill-opacity:1;stroke:none;stroke-width:1.00000012;stroke-miterlimit:4;stroke-dasharray:none;stroke-opacity:1"
         id="path4155"
         inkscape:connector-curvature="0" />
      <path
         d="m 332.58624,351.66218 0,0.1 q 0.85,0.85 1.45,2.25 0.6,1.4 0.6,2.65 0,1.8 -0.8,3.25 -0.8,1.45 -2.15,2.45 -1.3,1 -3,1.55 -1.65001,0.5 -3.35001,0.5 l -2.2,0 q -2.6,0 -3.8,0.5 -1.15,0.5 -1.15,1.65 0,0.9 0.6,1.4 0.65,0.45 2.3,0.55 l 6.85,0.2 q 5.30001,0 7.60001,1.65 2.3,1.6 2.3,4.55 0,2 -0.95,3.55 -0.95,1.55 -2.75,2.6 -1.75,1.1 -4.2,1.65 -2.45001,0.55 -5.45001,0.55 -2.4,0 -4.4,-0.3 -1.95,-0.3 -3.35,-1 -1.35,-0.7 -2.1,-1.85 -0.75,-1.15 -0.75,-2.85 0,-1.65 1.05,-2.95 1.05,-1.25 2.8,-1.25 0.6,0 1.05,0.15 0.5,0.2 0.85,0.45 0.35,0.25 0.55,0.5 0.2,0.25 0.2,0.4 0,0.1 -0.25,0.3 -0.2,0.2 -0.5,0.55 -0.3,0.35 -0.55,0.85 -0.2,0.55 -0.2,1.3 0,2.35 1.7,3.1 1.75,0.75 5.4,0.75 3.40001,0 5.40001,-1.3 2,-1.25 2,-3.95 0,-1.2 -0.7,-1.95 -0.65,-0.7 -1.75,-1.1 -1.1,-0.35 -2.55,-0.5 -1.45001,-0.1 -3.00001,-0.15 -1.55,0 -3.1,-0.05 -1.55,-0.05 -2.85,-0.3 -1.75,-0.3 -2.95,-1.15 -1.15,-0.85 -1.15,-2.9 0,-1.85 1.3,-3.2 1.3,-1.4 4,-1.4 -1.6,-0.6 -2.65,-1.35 -1,-0.8 -1.6,-1.65 -0.6,-0.9 -0.85,-1.85 -0.25,-0.95 -0.25,-1.9 0,-1.6 0.7,-3 0.7,-1.4 1.95,-2.4 1.3,-1.05 3.05,-1.65 1.8,-0.6 3.95,-0.6 1.4,0 2.9,0.25 1.55001,0.2 2.65001,0.75 l 6.85,-1.3 q 0.55,-0.05 0.75,0.35 0.2,0.4 0.2,0.85 0,0.7 -0.2,1.3 -0.2,0.6 -0.55,0.6 l -4.95,-0.2 z m -7.70001,-1.05 q -2.25,0 -3.7,1.55 -1.45,1.55 -1.45,4.4 0,3.1 1.45,4.75 1.5,1.65 3.75,1.65 2.3,0 3.75001,-1.6 1.45,-1.65 1.45,-4.7 0,-2.85 -1.5,-4.45 -1.45001,-1.6 -3.75001,-1.6 z"
         style="font-style:normal;font-variant:normal;font-weight:normal;font-stretch:normal;font-size:50.00000381px;font-family:Alice;-inkscape-font-specification:Alice;fill:#260d26;fill-opacity:1;stroke:none;stroke-width:1.00000012;stroke-miterlimit:4;stroke-dasharray:none;stroke-opacity:1"
         id="path4157"
         inkscape:connector-curvature="0" />
      <path
         d="m 349.85812,350.56218 q -1.45,0 -2.65,0.9 -1.2,0.9 -1.2,2.6 0,0.6 0.25,1.1 0.25,0.45 0.55,0.75 0.3,0.3 0.55,0.5 0.25,0.2 0.25,0.25 0,0.25 -0.6,0.75 -0.55,0.5 -1.55,0.5 -1.6,0 -2.45,-1.15 -0.8,-1.15 -0.8,-2.55 0,-1.4 0.7,-2.35 0.7,-1 1.8,-1.6 1.15,-0.6 2.55,-0.85 1.45,-0.3 2.9,-0.3 1.70001,0 3.35001,0.3 1.65,0.25 2.95,1.05 1.3,0.8 2.1,2.25 0.85,1.4 0.85,3.7 l 0,11.65 q 0,0.4 0.1,0.9 0.15,0.5 0.45,0.95 0.3,0.45 0.8,0.8 0.5,0.3 1.25,0.3 0.35,0 0.55,0.15 0.2,0.1 0.2,0.65 0,0.35 -0.3,0.55 -0.3,0.25 -0.75,0.35 -0.45,0.15 -0.95,0.2 -0.45,0.05 -0.75,0.05 -1.85,0 -3.3,-1.05 -1.45,-1.1 -1.7,-3 -0.55,1 -1.55,1.75 -1,0.75 -2.2,1.3 -1.15001,0.5 -2.40001,0.75 -1.2,0.25 -2.25,0.25 -1.3,0 -2.45,-0.5 -1.1,-0.45 -1.95,-1.25 -0.8,-0.8 -1.3,-1.85 -0.5,-1.1 -0.5,-2.35 0,-1.8 0.85,-3.05 0.9,-1.25 2.25,-2.05 1.35,-0.8 3,-1.25 1.7,-0.45 3.3,-0.65 1.65001,-0.25 3.00001,-0.3 1.4,-0.1 2.2,-0.2 l 0,-3.95 q 0,-2.35 -1.15,-3.65 -1.15,-1.35 -4.00001,-1.35 z m 5.15001,10.45 q -2.4,0.3 -4.20001,0.7 -1.8,0.4 -3,1 -1.15,0.6 -1.75,1.5 -0.6,0.9 -0.6,2.15 0,1.6 0.9,2.75 0.9,1.15 2.35,1.15 1.25,0 2.40001,-0.5 1.15,-0.5 2,-1.35 0.9,-0.85 1.4,-2.05 0.5,-1.2 0.5,-2.55 l 0,-2.8 z"
         style="font-style:normal;font-variant:normal;font-weight:normal;font-stretch:normal;font-size:50.00000381px;font-family:Alice;-inkscape-font-specification:Alice;fill:#260d26;fill-opacity:1;stroke:none;stroke-width:1.00000012;stroke-miterlimit:4;stroke-dasharray:none;stroke-opacity:1"
         id="path4159"
         inkscape:connector-curvature="0" />
      <path
         d="m 369.20578,355.76218 q 0,-0.65 0,-1.25 0,-0.65 -0.25,-1.1 -0.2,-0.5 -0.75,-0.75 -0.5,-0.3 -1.55,-0.3 -0.45,0 -0.85,-0.1 -0.35,-0.15 -0.35,-0.9 0,-0.3 0.2,-0.55 0.2,-0.25 0.6,-0.35 1.7,-0.25 2.8,-0.5 1.1,-0.3 1.8,-0.5 0.7,-0.25 1.1,-0.4 0.4,-0.15 0.8,-0.2 0.4,-0.05 0.65,0.15 0.3,0.2 0.3,0.8 l 0,3.1 0.15,0 q 1.7,-1.65 3.5,-2.7 1.8,-1.1 3.3,-1.1 0.9,0 1.55,0.35 0.7,0.35 1.15,0.95 0.45,0.55 0.65,1.3 0.25,0.7 0.25,1.45 0,0.65 -0.2,1.3 -0.2,0.6 -0.6,1.15 -0.4,0.5 -1,0.85 -0.6,0.3 -1.4,0.3 -0.8,0 -1.3,-0.3 -0.45,-0.35 -0.5,-0.5 0,-0.1 0.45,-0.6 0.5,-0.5 0.5,-1.25 0,-0.9 -0.5,-1.45 -0.45,-0.55 -1.25,-0.55 -0.85,0 -2.2,0.85 -1.3,0.85 -2.5,2.05 l 0,12.2 q 0,0.65 0,1.3 0,0.6 0.2,1.1 0.25,0.45 0.8,0.75 0.55,0.25 1.6,0.25 0.45,0 0.75,0.1 0.35,0.05 0.4,0.8 0,0.4 -0.2,0.7 -0.2,0.3 -0.6,0.3 -1.45,-0.1 -2.7,-0.15 -1.2,0 -2.55,0 -1.35,0 -2.55,0 -1.2,0.05 -2.65,0.15 -0.4,0 -0.6,-0.3 -0.2,-0.3 -0.2,-0.7 0.1,-0.75 0.4,-0.8 0.3,-0.1 0.8,-0.1 1.05,0 1.55,-0.25 0.55,-0.3 0.75,-0.75 0.25,-0.5 0.25,-1.1 0,-0.65 0,-1.3 l 0,-11.45 z"
         style="font-style:normal;font-variant:normal;font-weight:normal;font-stretch:normal;font-size:50.00000381px;font-family:Alice;-inkscape-font-specification:Alice;fill:#260d26;fill-opacity:1;stroke:none;stroke-width:1.00000012;stroke-miterlimit:4;stroke-dasharray:none;stroke-opacity:1"
         id="path4161"
         inkscape:connector-curvature="0" />
      <path
         d="m 407.37766,350.56218 q -1.45,0 -2.65,0.9 -1.2,0.9 -1.2,2.6 0,0.6 0.25,1.1 0.25,0.45 0.55,0.75 0.3,0.3 0.55,0.5 0.25,0.2 0.25,0.25 0,0.25 -0.6,0.75 -0.55,0.5 -1.55,0.5 -1.6,0 -2.45,-1.15 -0.8,-1.15 -0.8,-2.55 0,-1.4 0.7,-2.35 0.7,-1 1.8,-1.6 1.15,-0.6 2.55,-0.85 1.45,-0.3 2.9,-0.3 1.7,0 3.35,0.3 1.65,0.25 2.95,1.05 1.3,0.8 2.1,2.25 0.85,1.4 0.85,3.7 l 0,11.65 q 0,0.4 0.1,0.9 0.15,0.5 0.45,0.95 0.3,0.45 0.8,0.8 0.5,0.3 1.25,0.3 0.35,0 0.55,0.15 0.2,0.1 0.2,0.65 0,0.35 -0.3,0.55 -0.3,0.25 -0.75,0.35 -0.45,0.15 -0.95,0.2 -0.45,0.05 -0.75,0.05 -1.85,0 -3.3,-1.05 -1.45,-1.1 -1.7,-3 -0.55,1 -1.55,1.75 -1,0.75 -2.2,1.3 -1.15,0.5 -2.4,0.75 -1.2,0.25 -2.25,0.25 -1.3,0 -2.45,-0.5 -1.1,-0.45 -1.95,-1.25 -0.8,-0.8 -1.3,-1.85 -0.5,-1.1 -0.5,-2.35 0,-1.8 0.85,-3.05 0.9,-1.25 2.25,-2.05 1.35,-0.8 3,-1.25 1.7,-0.45 3.3,-0.65 1.65,-0.25 3,-0.3 1.4,-0.1 2.2,-0.2 l 0,-3.95 q 0,-2.35 -1.15,-3.65 -1.15,-1.35 -4,-1.35 z m 5.15,10.45 q -2.4,0.3 -4.2,0.7 -1.8,0.4 -3,1 -1.15,0.6 -1.75,1.5 -0.6,0.9 -0.6,2.15 0,1.6 0.9,2.75 0.9,1.15 2.35,1.15 1.25,0 2.4,-0.5 1.15,-0.5 2,-1.35 0.9,-0.85 1.4,-2.05 0.5,-1.2 0.5,-2.55 l 0,-2.8 z"
         style="font-style:normal;font-variant:normal;font-weight:normal;font-stretch:normal;font-size:50.00000381px;font-family:Alice;-inkscape-font-specification:Alice;fill:#260d26;fill-opacity:1;stroke:none;stroke-width:1.00000012;stroke-miterlimit:4;stroke-dasharray:none;stroke-opacity:1"
         id="path4163"
         inkscape:connector-curvature="0" />
      <path
         d="m 426.22531,342.81218 q 0,-0.65 0,-1.25 0,-0.65 -0.25,-1.1 -0.2,-0.5 -0.75,-0.75 -0.5,-0.3 -1.55,-0.3 -0.45,0 -0.85,-0.1 -0.35,-0.15 -0.35,-0.9 0,-0.3 0.2,-0.55 0.2,-0.25 0.6,-0.35 1.7,-0.25 2.8,-0.5 1.1,-0.3 1.8,-0.5 0.7,-0.25 1.1,-0.4 0.45,-0.15 0.85,-0.2 0.4,-0.05 0.65,0.15 0.3,0.2 0.3,0.8 l 0,30.35 q 0,0.65 0,1.3 0,0.6 0.2,1.1 0.25,0.45 0.8,0.75 0.55,0.25 1.6,0.25 0.45,0 0.75,0.1 0.35,0.05 0.4,0.8 0,0.4 -0.2,0.7 -0.2,0.3 -0.6,0.3 -1.45,-0.1 -2.7,-0.15 -1.2,0 -2.55,0 -1.35,0 -2.55,0 -1.2,0.05 -2.65,0.15 -0.4,0 -0.6,-0.3 -0.2,-0.3 -0.2,-0.7 0.05,-0.75 0.35,-0.8 0.35,-0.1 0.8,-0.1 1.05,0 1.55,-0.25 0.55,-0.3 0.75,-0.75 0.25,-0.5 0.25,-1.1 0.05,-0.65 0.05,-1.3 l 0,-24.4 z"
         style="font-style:normal;font-variant:normal;font-weight:normal;font-stretch:normal;font-size:50.00000381px;font-family:Alice;-inkscape-font-specification:Alice;fill:#260d26;fill-opacity:1;stroke:none;stroke-width:1.00000012;stroke-miterlimit:4;stroke-dasharray:none;stroke-opacity:1"
         id="path4165"
         inkscape:connector-curvature="0" />
      <path
         d="m 455.63313,351.66218 0,0.1 q 0.85,0.85 1.45,2.25 0.6,1.4 0.6,2.65 0,1.8 -0.8,3.25 -0.8,1.45 -2.15,2.45 -1.3,1 -3,1.55 -1.65,0.5 -3.35,0.5 l -2.20001,0 q -2.6,0 -3.8,0.5 -1.15,0.5 -1.15,1.65 0,0.9 0.6,1.4 0.65,0.45 2.3,0.55 l 6.85001,0.2 q 5.3,0 7.6,1.65 2.3,1.6 2.3,4.55 0,2 -0.95,3.55 -0.95,1.55 -2.75,2.6 -1.75,1.1 -4.2,1.65 -2.45,0.55 -5.45001,0.55 -2.4,0 -4.4,-0.3 -1.95,-0.3 -3.35,-1 -1.35,-0.7 -2.1,-1.85 -0.75,-1.15 -0.75,-2.85 0,-1.65 1.05,-2.95 1.05,-1.25 2.8,-1.25 0.6,0 1.05,0.15 0.5,0.2 0.85,0.45 0.35,0.25 0.55,0.5 0.2,0.25 0.2,0.4 0,0.1 -0.25,0.3 -0.2,0.2 -0.5,0.55 -0.3,0.35 -0.55,0.85 -0.2,0.55 -0.2,1.3 0,2.35 1.7,3.1 1.75,0.75 5.40001,0.75 3.4,0 5.4,-1.3 2,-1.25 2,-3.95 0,-1.2 -0.7,-1.95 -0.65,-0.7 -1.75,-1.1 -1.1,-0.35 -2.55,-0.5 -1.45,-0.1 -3,-0.15 -1.55001,0 -3.10001,-0.05 -1.55,-0.05 -2.85,-0.3 -1.75,-0.3 -2.95,-1.15 -1.15,-0.85 -1.15,-2.9 0,-1.85 1.3,-3.2 1.3,-1.4 4,-1.4 -1.6,-0.6 -2.65,-1.35 -1,-0.8 -1.6,-1.65 -0.6,-0.9 -0.85,-1.85 -0.25,-0.95 -0.25,-1.9 0,-1.6 0.7,-3 0.7,-1.4 1.95,-2.4 1.3,-1.05 3.05,-1.65 1.8,-0.6 3.95001,-0.6 1.4,0 2.9,0.25 1.55,0.2 2.65,0.75 l 6.85,-1.3 q 0.55,-0.05 0.75,0.35 0.2,0.4 0.2,0.85 0,0.7 -0.2,1.3 -0.2,0.6 -0.55,0.6 l -4.95,-0.2 z m -7.70001,-1.05 q -2.25,0 -3.7,1.55 -1.45,1.55 -1.45,4.4 0,3.1 1.45,4.75 1.5,1.65 3.75001,1.65 2.3,0 3.75,-1.6 1.45,-1.65 1.45,-4.7 0,-2.85 -1.5,-4.45 -1.45,-1.6 -3.75001,-1.6 z"
         style="font-style:normal;font-variant:normal;font-weight:normal;font-stretch:normal;font-size:50.00000381px;font-family:Alice;-inkscape-font-specification:Alice;fill:#260d26;fill-opacity:1;stroke:none;stroke-width:1.00000012;stroke-miterlimit:4;stroke-dasharray:none;stroke-opacity:1"
         id="path4167"
         inkscape:connector-curvature="0" />
      <path
         d="m 486.455,367.61218 q 0,2.95 3.95,2.95 0.55,0 0.7,0.3 0.15,0.3 0.15,0.65 0,0.7 -0.85,0.85 l -8.05,0.55 q -0.4,0 -0.45,-0.3 0,-0.3 0,-0.7 l 0,-2.8 -0.1,0 q -0.75,0.7 -1.5,1.4 -0.75,0.65 -1.7,1.2 -0.9,0.55 -2.1,0.9 -1.2,0.35 -2.75,0.35 -3.45,0 -5.45,-2.05 -1.95,-2.05 -1.95,-5.4 l 0,-9.25 q 0,-0.65 0,-1.25 0,-0.65 -0.25,-1.1 -0.2,-0.5 -0.75,-0.75 -0.5,-0.3 -1.55,-0.3 -0.45,0 -0.85,-0.1 -0.35,-0.15 -0.35,-0.9 0,-0.3 0.2,-0.55 0.2,-0.25 0.6,-0.35 1.7,-0.25 2.8,-0.5 1.1,-0.3 1.8,-0.5 0.7,-0.25 1.1,-0.4 0.45,-0.15 0.85,-0.2 0.4,-0.05 0.65,0.15 0.3,0.2 0.3,0.8 l 0,15.15 q 0,1.25 0.4,2.15 0.45,0.9 1.1,1.5 0.7,0.55 1.55,0.85 0.9,0.25 1.75,0.25 1.3,0 2.35,-0.35 1.05,-0.4 1.85,-0.95 0.8,-0.55 1.3,-1.1 0.5,-0.6 0.7,-1.05 l 0,-10.5 q 0,-0.65 0,-1.25 0,-0.65 -0.25,-1.1 -0.2,-0.5 -0.75,-0.75 -0.5,-0.3 -1.55,-0.3 -0.45,0 -0.85,-0.1 -0.35,-0.15 -0.35,-0.9 0,-0.3 0.2,-0.55 0.2,-0.25 0.6,-0.35 1.7,-0.25 2.8,-0.5 1.1,-0.3 1.8,-0.5 0.7,-0.25 1.1,-0.4 0.45,-0.15 0.85,-0.2 0.4,-0.05 0.65,0.15 0.3,0.2 0.3,0.8 l 0,17.3 z"
         style="font-style:normal;font-variant:normal;font-weight:normal;font-stretch:normal;font-size:50.00000381px;font-family:Alice;-inkscape-font-specification:Alice;fill:#260d26;fill-opacity:1;stroke:none;stroke-width:1.00000012;stroke-miterlimit:4;stroke-dasharray:none;stroke-opacity:1"
         id="path4169"
         inkscape:connector-curvature="0" />
      <path
         d="m 501.49016,352.96218 0.15,0 q 0.75,-0.7 1.45,-1.35 0.7,-0.7 1.55,-1.25 0.85,-0.55 1.95,-0.9 1.15,-0.35 2.75,-0.35 2.45,0 4.15,1.05 1.75,1 2.6,2.8 l 0.1,0 q 0.75,-0.7 1.55,-1.35 0.8,-0.7 1.75,-1.25 1,-0.55 2.2,-0.9 1.2,-0.35 2.8,-0.35 3.45,0 5.4,2.05 2,2.05 2,5.4 l 0,10.65 q 0,0.65 0,1.3 0,0.6 0.2,1.1 0.25,0.45 0.8,0.75 0.55,0.25 1.6,0.25 0.45,0 0.75,0.1 0.35,0.05 0.4,0.8 0,0.4 -0.2,0.7 -0.2,0.3 -0.6,0.3 -1.45,-0.1 -2.7,-0.15 -1.2,0 -2.55,0 -1.35,0 -2.55,0 -1.2,0.05 -2.65,0.15 -0.4,0 -0.6,-0.3 -0.2,-0.3 -0.2,-0.7 0.05,-0.75 0.35,-0.8 0.35,-0.1 0.8,-0.1 1.05,0 1.55,-0.25 0.55,-0.3 0.75,-0.75 0.25,-0.5 0.25,-1.1 0.05,-0.65 0.05,-1.3 l 0,-10.6 q 0,-1.25 -0.45,-2.15 -0.4,-0.9 -1.1,-1.45 -0.65,-0.6 -1.55,-0.85 -0.85,-0.3 -1.7,-0.3 -1.3,0 -2.3,0.4 -1,0.35 -1.7,0.9 -0.7,0.55 -1.15,1.15 -0.45,0.55 -0.65,1 l 0,11.9 q 0,0.65 -0.05,1.3 0,0.6 0.2,1.1 0.2,0.45 0.7,0.75 0.5,0.25 1.55,0.25 0.5,0 0.8,0.1 0.3,0.05 0.35,0.8 0,0.4 -0.2,0.7 -0.2,0.3 -0.6,0.3 -1.45,-0.1 -2.6,-0.15 -1.15,0 -2.5,0 -1.3,0 -2.45,0 -1.1,0.05 -2.55,0.15 -0.4,0 -0.6,-0.3 -0.2,-0.3 -0.2,-0.7 0.05,-0.75 0.35,-0.8 0.3,-0.1 0.8,-0.1 1.05,0 1.55,-0.25 0.5,-0.3 0.7,-0.75 0.2,-0.5 0.15,-1.1 0,-0.65 0,-1.3 l 0,-10.6 q 0,-1.25 -0.45,-2.15 -0.4,-0.9 -1.1,-1.45 -0.65,-0.6 -1.5,-0.85 -0.85,-0.3 -1.7,-0.3 -1.3,0 -2.3,0.4 -1,0.35 -1.75,0.9 -0.7,0.55 -1.15,1.15 -0.45,0.55 -0.65,1 l 0,11.9 q 0,0.65 0,1.3 0,0.6 0.2,1.1 0.25,0.45 0.8,0.75 0.55,0.25 1.6,0.25 0.45,0 0.75,0.1 0.35,0.05 0.4,0.8 0,0.4 -0.2,0.7 -0.2,0.3 -0.6,0.3 -1.45,-0.1 -2.7,-0.15 -1.2,0 -2.55,0 -1.35,0 -2.55,0 -1.2,0.05 -2.65,0.15 -0.4,0 -0.6,-0.3 -0.2,-0.3 -0.2,-0.7 0.05,-0.75 0.35,-0.8 0.35,-0.1 0.8,-0.1 1.05,0 1.55,-0.25 0.55,-0.3 0.75,-0.75 0.25,-0.5 0.25,-1.1 0.05,-0.65 0.05,-1.3 l 0,-11.45 q 0,-0.65 0,-1.25 0,-0.65 -0.25,-1.1 -0.2,-0.5 -0.75,-0.75 -0.5,-0.3 -1.55,-0.3 -0.45,0 -0.85,-0.1 -0.35,-0.15 -0.35,-0.9 0,-0.3 0.2,-0.55 0.2,-0.25 0.6,-0.35 1.7,-0.25 2.8,-0.5 1.1,-0.3 1.8,-0.5 0.7,-0.25 1.1,-0.4 0.4,-0.15 0.8,-0.2 0.4,-0.05 0.65,0.15 0.3,0.2 0.3,0.8 l 0,3.15 z"
         style="font-style:normal;font-variant:normal;font-weight:normal;font-stretch:normal;font-size:50.00000381px;font-family:Alice;-inkscape-font-specification:Alice;fill:#260d26;fill-opacity:1;stroke:none;stroke-width:1.00000012;stroke-miterlimit:4;stroke-dasharray:none;stroke-opacity:1"
         id="path4171"
         inkscape:connector-curvature="0" />
    </g>
    <g
       id="g3354"
       transform="matrix(1.0246928,0,0,1.0246928,-1.1775563,-5.1975703)"
       style="fill:#260d26;fill-opacity:1">
      <path
         id="path4240"
         sodipodi:nodetypes="ccccccccczccsssssscc"
         style="fill:#260d26;fill-opacity:1"
         inkscape:connector-curvature="0"
         d="m 59.362924,229.1111 c -6.415722,15.79044 -3.676144,33.78458 -1.72101,48.05844 l 2.593206,2.10192 13.463267,32.83244 c 22.62446,10.42878 61.438853,10.76725 87.663753,11.08475 26.72848,-0.8716 66.8517,-4.87474 84.79176,-14.91696 l 11.8904,-36.13053 3.32676,-2.89134 c 0.89891,-16.07904 1.02113,-25.01843 -2.95244,-38.51817 -33.74917,-8.40395 -90.68789,-11.15343 -115.69404,-10.52976 -25.00743,0.62459 -72.143304,1.74102 -83.362552,8.90819 z m 12.14872,84.37123 c 0,0 -6.239679,-14.22392 -12.387871,-27.43808 -1.549215,-3.32973 -5.023619,-2.35315 -6.132058,-6.03105 -5.714211,-18.9603 -7.58771,-45.74296 -1.709652,-55.59836 11.543755,-19.35296 209.900617,-18.36529 218.381877,1.90397 3.30008,7.88306 1.00064,30.52707 -3.66252,46.32649 -0.67987,2.30369 -4.1107,1.3844 -4.90739,3.58096 -6.02454,16.61051 -11.96887,32.7271 -11.96753,32.72699 -20.05806,19.63992 -159.168584,22.94927 -177.617727,4.53394 z" />
      <use
         style="fill:#260d26;fill-opacity:1"
         id="use4755"
         xlink:href="#path4240"
         transform="matrix(-1,0,0,1,595.03736,1.8079072e-7)"
         height="1052.3622"
         width="744.09448"
         y="0"
         x="0" />
      <path
         id="path4757"
         d="m 269.05985,258.11296 c 19.37907,-10.39935 39.35643,-9.74273 56.97451,0.23122 l -2.09181,-20.88425 c 0.15232,6.5238 -52.96117,6.55643 -52.78115,0.41944 -2.00301,3.35117 -1.88972,12.97737 -2.10074,20.23454 z"
         sodipodi:nodetypes="ccccc"
         style="fill:#260d26;fill-opacity:1"
         inkscape:connector-curvature="0" />
    </g>
  </g>
</svg>
