<?xml version="1.0" encoding="UTF-8" standalone="no"?>
<!-- Created with Inkscape (http://www.inkscape.org/) -->

<svg
   xmlns:dc="http://purl.org/dc/elements/1.1/"
   xmlns:cc="http://creativecommons.org/ns#"
   xmlns:rdf="http://www.w3.org/1999/02/22-rdf-syntax-ns#"
   xmlns:svg="http://www.w3.org/2000/svg"
   xmlns="http://www.w3.org/2000/svg"
   xmlns:sodipodi="http://sodipodi.sourceforge.net/DTD/sodipodi-0.dtd"
   xmlns:inkscape="http://www.inkscape.org/namespaces/inkscape"
   width="1503.4764"
   height="409.00006"
   viewBox="0 0 1503.4764 409.00007"
   id="svg2"
   version="1.1"
   inkscape:version="0.91 r13725"
   sodipodi:docname="logo-cubo-esporte.svg">
  <defs
     id="defs4">
    <inkscape:perspective
       sodipodi:type="inkscape:persp3d"
       inkscape:vp_x="79.999998 : 517.60967 : 1"
       inkscape:vp_y="0 : 1000 : 0"
       inkscape:vp_z="364.09448 : 594.75253 : 1"
       inkscape:persp3d-origin="372.04723 : 350.7874 : 1"
       id="perspective3357" />
  </defs>
  <sodipodi:namedview
     id="base"
     pagecolor="#ffffff"
     bordercolor="#666666"
     borderopacity="1.0"
     inkscape:pageopacity="0.0"
     inkscape:pageshadow="2"
     inkscape:zoom="0.35355339"
     inkscape:cx="404.80632"
     inkscape:cy="30.699149"
     inkscape:document-units="px"
     inkscape:current-layer="layer1"
     showgrid="false"
     inkscape:window-width="1280"
     inkscape:window-height="656"
     inkscape:window-x="0"
     inkscape:window-y="27"
     inkscape:window-maximized="1"
     units="px"
     inkscape:showpageshadow="false"
     fit-margin-top="0"
     fit-margin-left="0"
     fit-margin-right="0"
     fit-margin-bottom="0"
     showguides="true"
     inkscape:guide-bbox="true">
    <sodipodi:guide
       position="816.35545,270.6485"
       orientation="1,0"
       id="guide4200" />
    <sodipodi:guide
       position="921.99216,289.06647"
       orientation="1,0"
       id="guide4204" />
    <sodipodi:guide
       position="980.85935,282.23444"
       orientation="1,0"
       id="guide4206" />
    <sodipodi:guide
       position="1086.25,293.1485"
       orientation="1,0"
       id="guide4208" />
    <sodipodi:guide
       position="606.20326,225.10298"
       orientation="1,0"
       id="guide4269" />
    <sodipodi:guide
       position="459.99608,328.46876"
       orientation="1,0"
       id="guide4271" />
    <sodipodi:guide
       position="627.67186,283.00001"
       orientation="1,0"
       id="guide4275" />
    <sodipodi:guide
       position="773.88279,300.31251"
       orientation="1,0"
       id="guide4277" />
  </sodipodi:namedview>
  <metadata
     id="metadata7">
    <rdf:RDF>
      <cc:Work
         rdf:about="">
        <dc:format>image/svg+xml</dc:format>
        <dc:type
           rdf:resource="http://purl.org/dc/dcmitype/StillImage" />
        <dc:title></dc:title>
      </cc:Work>
    </rdf:RDF>
  </metadata>
  <g
     inkscape:label="Camada 1"
     inkscape:groupmode="layer"
     id="layer1"
     transform="translate(-51.5,-591.86214)">
    <path
       style="opacity:1;fill:#f8c755;fill-opacity:1;stroke:none;stroke-width:2;stroke-linecap:round;stroke-linejoin:miter;stroke-miterlimit:4;stroke-dasharray:none;stroke-dashoffset:0;stroke-opacity:1"
       d="m 329.16797,728.19611 0,141.33399 -141.33399,0 0,131.332 272.66602,0 0,-272.66599 -131.33203,0 z"
       id="rect3373-7"
       inkscape:connector-curvature="0" />
    <path
       style="opacity:1;fill:#063217;fill-opacity:1;stroke:none;stroke-width:2;stroke-linecap:round;stroke-linejoin:miter;stroke-miterlimit:4;stroke-dasharray:none;stroke-dashoffset:0;stroke-opacity:1"
       d="m 324.16666,864.52884 -272.66666,0 0,-272.66666 272.66666,0 z"
       id="rect3373"
       inkscape:connector-curvature="0" />
    <path
       style="opacity:1;fill:#f8c755;fill-opacity:1;stroke:none;stroke-width:2;stroke-linecap:round;stroke-linejoin:miter;stroke-miterlimit:4;stroke-dasharray:none;stroke-dashoffset:0;stroke-opacity:1"
       d="m 56.501953,869.5301 126.332027,126.33203 0,-126.33203 -126.332027,0 z"
       id="rect3373-7-6-9"
       inkscape:connector-curvature="0" />
    <path
       style="opacity:1;fill:#063217;fill-opacity:1;stroke:none;stroke-width:2;stroke-linecap:round;stroke-linejoin:miter;stroke-miterlimit:4;stroke-dasharray:none;stroke-dashoffset:0;stroke-opacity:1"
       d="m 329.16797,596.86408 0,126.33203 126.33203,0 -126.33203,-126.33203 z"
       id="rect3373-7-6-9-7"
       inkscape:connector-curvature="0" />
    <g
       style="font-style:normal;font-weight:normal;font-size:183.87939453px;line-height:125%;font-family:sans-serif;text-align:start;letter-spacing:0px;word-spacing:0px;text-anchor:start;fill:#063217;fill-opacity:1;stroke:none;stroke-width:1px;stroke-linecap:butt;stroke-linejoin:miter;stroke-opacity:1"
       id="text4152"
       transform="matrix(1.2369473,0,0,1.2369473,-161.07845,-197.13976)">
      <path
         inkscape:connector-curvature="0"
         d="m 567.94059,775.46218 94,0 0,16.4 -94,0 q -10,0 -17.2,-7 -7,-7.2 -7,-17.2 l 0,-67.6 q 0,-10 7,-17 7.2,-7.2 17.2,-7.2 l 93.6,0 0,16.4 -93.6,0 q -3.2,0 -5.6,2.4 -2.2,2.2 -2.2,5.4 l 0,67.6 q 0,3.2 2.2,5.6 2.4,2.2 5.6,2.2 z"
         style="font-style:normal;font-variant:normal;font-weight:normal;font-stretch:normal;font-size:200px;font-family:Orbitron;-inkscape-font-specification:Orbitron;fill:#063217;fill-opacity:1"
         id="path4211" />
      <path
         inkscape:connector-curvature="0"
         d="m 781.09684,675.86218 16.4,0 0,91.8 q 0,10 -7.2,17.2 -7,7 -17.2,7 l -69.6,0 q -10,0 -17.2,-7 -7,-7.2 -7,-17.2 l 0,-91.8 16.4,0 0,91.8 q 0,3.2 2.2,5.6 2.4,2.2 5.6,2.2 l 69.6,0 q 3.2,0 5.6,-2.2 2.4,-2.4 2.4,-5.6 l 0,-91.8 z"
         style="font-style:normal;font-variant:normal;font-weight:normal;font-stretch:normal;font-size:200px;font-family:Orbitron;-inkscape-font-specification:Orbitron;fill:#063217;fill-opacity:1"
         id="path4213" />
      <path
         inkscape:connector-curvature="0"
         d="m 909.43434,675.86218 q 10,0 17,7.2 7.2,7 7.2,17 l 0,67.6 q 0,10 -7.2,17.2 -7,7 -17,7 l -94,0 0,-154 16.4,0 0,38 77.6,0 z m 7.8,91.8 0,-67.6 q 0,-3.2 -2.4,-5.4 -2.2,-2.4 -5.4,-2.4 l -69.6,0 q -3.2,0 -5.6,2.4 -2.4,2.2 -2.4,5.4 l 0,67.6 q 0,3.2 2.4,5.6 2.4,2.2 5.6,2.2 l 69.6,0 q 3.2,0 5.4,-2.2 2.4,-2.4 2.4,-5.6 z"
         style="font-style:normal;font-variant:normal;font-weight:normal;font-stretch:normal;font-size:200px;font-family:Orbitron;-inkscape-font-specification:Orbitron;fill:#063217;fill-opacity:1"
         id="path4215" />
      <path
         inkscape:connector-curvature="0"
         d="m 972.62809,675.86218 69.60001,0 q 10.2,0 17.2,7.2 7.2,7 7.2,17 l 0,67.6 q 0,10 -7.2,17.2 -7,7 -17.2,7 l -69.60001,0 q -10,0 -17.2,-7 -7,-7.2 -7,-17.2 l 0,-67.6 q 0,-10 7,-17 7.2,-7.2 17.2,-7.2 z m 69.60001,16.4 -69.60001,0 q -3.2,0 -5.6,2.4 -2.2,2.2 -2.2,5.4 l 0,67.6 q 0,3.2 2.2,5.6 2.4,2.2 5.6,2.2 l 69.60001,0 q 3.2,0 5.4,-2.2 2.4,-2.4 2.4,-5.6 l 0,-67.6 q 0,-3.2 -2.4,-5.4 -2.2,-2.4 -5.4,-2.4 z"
         style="font-style:normal;font-variant:normal;font-weight:normal;font-stretch:normal;font-size:200px;font-family:Orbitron;-inkscape-font-specification:Orbitron;fill:#063217;fill-opacity:1"
         id="path4217" />
    </g>
    <path
       inkscape:connector-curvature="0"
       id="path4220"
       style="font-style:normal;font-variant:normal;font-weight:normal;font-stretch:normal;font-size:200px;line-height:125%;font-family:Orbitron;-inkscape-font-specification:Orbitron;text-align:start;letter-spacing:0px;word-spacing:0px;text-anchor:start;fill:#f8c755;fill-opacity:1;stroke:none;stroke-width:1px;stroke-linecap:butt;stroke-linejoin:miter;stroke-opacity:1"
       d="m 627.52566,800.47669 q 12.61686,0 21.27549,8.90602 8.90602,8.65863 8.90602,21.02811 l 0,51.95178 -125.92123,0 0,31.66585 q 0,3.95823 2.72128,6.92691 2.96867,2.72128 6.92691,2.72128 l 116.27304,0 0,20.28594 -116.27304,0 q -12.36948,0 -21.2755,-8.65863 Q 511.5,926.39793 511.5,914.02845 l 0,-83.61763 q 0,-12.36948 8.65863,-21.02811 8.90602,-8.90602 21.2755,-8.90602 l 86.09153,0 z m -95.73972,61.59998 105.38791,0 0,-31.66585 q 0,-3.95824 -2.96868,-6.67952 -2.72128,-2.96867 -6.67951,-2.96867 l -86.09153,0 q -3.95824,0 -6.92691,2.96867 -2.72128,2.72128 -2.72128,6.67952 l 0,31.66585 z" />
    <path
       inkscape:connector-curvature="0"
       id="path4222"
       style="font-style:normal;font-variant:normal;font-weight:normal;font-stretch:normal;font-size:200px;line-height:125%;font-family:Orbitron;-inkscape-font-specification:Orbitron;text-align:start;letter-spacing:0px;word-spacing:0px;text-anchor:start;fill:#f8c755;fill-opacity:1;stroke:none;stroke-width:1px;stroke-linecap:butt;stroke-linejoin:miter;stroke-opacity:1"
       d="m 825.37832,830.41082 0,1.97911 -20.53332,0 0,-1.97911 q 0,-3.95824 -2.96868,-6.67952 -2.72128,-2.96867 -6.67951,-2.96867 l -86.09153,0 q -3.95823,0 -6.92691,2.96867 -2.72128,2.72128 -2.72128,6.67952 l 0,22.01766 q 0,3.95823 2.72128,6.9269 2.96868,2.72129 6.92691,2.72129 l 86.09153,0 q 12.61686,0 21.27549,8.90602 8.90602,8.65863 8.90602,21.0281 l 0,22.01766 q 0,12.36948 -8.90602,21.2755 -8.65863,8.65863 -21.27549,8.65863 l -86.09153,0 q -12.36948,0 -21.2755,-8.65863 -8.65863,-8.90602 -8.65863,-21.2755 l 0,-1.97911 20.28594,0 0,1.97911 q 0,3.95823 2.72128,6.92691 2.96868,2.72128 6.92691,2.72128 l 86.09153,0 q 3.95823,0 6.67951,-2.72128 2.96868,-2.96868 2.96868,-6.92691 l 0,-22.01766 q 0,-3.95823 -2.96868,-6.67951 -2.72128,-2.96868 -6.67951,-2.96868 l -86.09153,0 q -12.36948,0 -21.2755,-8.65863 -8.65863,-8.90602 -8.65863,-21.27549 l 0,-22.01766 q 0,-12.36948 8.65863,-21.02811 8.90602,-8.90602 21.2755,-8.90602 l 86.09153,0 q 12.61686,0 21.27549,8.90602 8.90602,8.65863 8.90602,21.02811 z" />
    <path
       inkscape:connector-curvature="0"
       id="path4224"
       style="font-style:normal;font-variant:normal;font-weight:normal;font-stretch:normal;font-size:200px;line-height:125%;font-family:Orbitron;-inkscape-font-specification:Orbitron;text-align:start;letter-spacing:0px;word-spacing:0px;text-anchor:start;fill:#f8c755;fill-opacity:1;stroke:none;stroke-width:1px;stroke-linecap:butt;stroke-linejoin:miter;stroke-opacity:1"
       d="m 963.84622,800.47669 q 12.36947,0 21.0281,8.90602 8.90602,8.65863 8.90602,21.02811 l 0,83.61763 q 0,12.36948 -8.90602,21.2755 -8.65863,8.65863 -21.0281,8.65863 l -95.98711,0 0,56.89962 -20.28594,0 0,-200.38551 116.27305,0 z m 9.64819,113.55176 0,-83.61763 q 0,-3.95824 -2.96867,-6.67952 -2.72129,-2.96867 -6.67952,-2.96867 l -86.09153,0 q -3.95823,0 -6.92691,2.96867 -2.96867,2.72128 -2.96867,6.67952 l 0,83.61763 q 0,3.95823 2.96867,6.92691 2.96868,2.72128 6.92691,2.72128 l 86.09153,0 q 3.95823,0 6.67952,-2.72128 2.96867,-2.96868 2.96867,-6.92691 z" />
    <path
       inkscape:connector-curvature="0"
       id="path4226"
       style="font-style:normal;font-variant:normal;font-weight:normal;font-stretch:normal;font-size:200px;line-height:125%;font-family:Orbitron;-inkscape-font-specification:Orbitron;text-align:start;letter-spacing:0px;word-spacing:0px;text-anchor:start;fill:#f8c755;fill-opacity:1;stroke:none;stroke-width:1px;stroke-linecap:butt;stroke-linejoin:miter;stroke-opacity:1"
       d="m 1042.0105,800.47669 86.0916,0 q 12.6168,0 21.2755,8.90602 8.906,8.65863 8.906,21.02811 l 0,83.61763 q 0,12.36948 -8.906,21.2755 -8.6587,8.65863 -21.2755,8.65863 l -86.0916,0 q -12.3695,0 -21.2755,-8.65863 -8.6587,-8.90602 -8.6587,-21.2755 l 0,-83.61763 q 0,-12.36948 8.6587,-21.02811 8.906,-8.90602 21.2755,-8.90602 z m 86.0916,20.28594 -86.0916,0 q -3.9583,0 -6.9269,2.96867 -2.7213,2.72128 -2.7213,6.67952 l 0,83.61763 q 0,3.95823 2.7213,6.92691 2.9686,2.72128 6.9269,2.72128 l 86.0916,0 q 3.9582,0 6.6795,-2.72128 2.9687,-2.96868 2.9687,-6.92691 l 0,-83.61763 q 0,-3.95824 -2.9687,-6.67952 -2.7213,-2.96867 -6.6795,-2.96867 z" />
    <path
       inkscape:connector-curvature="0"
       id="path4228"
       style="font-style:normal;font-variant:normal;font-weight:normal;font-stretch:normal;font-size:200px;line-height:125%;font-family:Orbitron;-inkscape-font-specification:Orbitron;text-align:start;letter-spacing:0px;word-spacing:0px;text-anchor:start;fill:#f8c755;fill-opacity:1;stroke:none;stroke-width:1px;stroke-linecap:butt;stroke-linejoin:miter;stroke-opacity:1"
       d="m 1210.8886,800.47669 80.649,0 0,20.28594 -80.649,0 q -3.9582,0 -6.9269,2.96867 -2.7213,2.72128 -2.7213,6.67952 l 0,113.55176 -20.2859,0 0,-113.55176 q 0,-12.36948 8.6586,-21.02811 8.906,-8.90602 21.2755,-8.90602 z" />
    <path
       inkscape:connector-curvature="0"
       id="path4230"
       style="font-style:normal;font-variant:normal;font-weight:normal;font-stretch:normal;font-size:200px;line-height:125%;font-family:Orbitron;-inkscape-font-specification:Orbitron;text-align:start;letter-spacing:0px;word-spacing:0px;text-anchor:start;fill:#f8c755;fill-opacity:1;stroke:none;stroke-width:1px;stroke-linecap:butt;stroke-linejoin:miter;stroke-opacity:1"
       d="m 1390.1763,820.76263 -62.0947,0 0,93.26582 q 0,3.95823 2.7212,6.92691 2.9687,2.72128 6.927,2.72128 l 52.4465,0 0,20.28594 -52.4465,0 q -12.6169,0 -21.2755,-8.65863 -8.6587,-8.90602 -8.6587,-21.2755 l 0,-160.55576 20.286,0 0,47.004 62.0947,0 0,20.28594 z" />
    <path
       inkscape:connector-curvature="0"
       id="path4232"
       style="font-style:normal;font-variant:normal;font-weight:normal;font-stretch:normal;font-size:200px;line-height:125%;font-family:Orbitron;-inkscape-font-specification:Orbitron;text-align:start;letter-spacing:0px;word-spacing:0px;text-anchor:start;fill:#f8c755;fill-opacity:1;stroke:none;stroke-width:1px;stroke-linecap:butt;stroke-linejoin:miter;stroke-opacity:1"
       d="m 1524.7949,800.47669 q 12.6169,0 21.2755,8.90602 8.906,8.65863 8.906,21.02811 l 0,51.95178 -125.9212,0 0,31.66585 q 0,3.95823 2.7213,6.92691 2.9686,2.72128 6.9269,2.72128 l 116.273,0 0,20.28594 -116.273,0 q -12.3695,0 -21.2755,-8.65863 -8.6587,-8.90602 -8.6587,-21.2755 l 0,-83.61763 q 0,-12.36948 8.6587,-21.02811 8.906,-8.90602 21.2755,-8.90602 l 86.0915,0 z m -95.7397,61.59998 105.3879,0 0,-31.66585 q 0,-3.95824 -2.9687,-6.67952 -2.7213,-2.96867 -6.6795,-2.96867 l -86.0915,0 q -3.9583,0 -6.9269,2.96867 -2.7213,2.72128 -2.7213,6.67952 l 0,31.66585 z" />
  </g>
</svg>
