<?xml version="1.0" encoding="UTF-8" standalone="no"?>
<!-- Created with Inkscape (http://www.inkscape.org/) -->

<svg
   xmlns:dc="http://purl.org/dc/elements/1.1/"
   xmlns:cc="http://creativecommons.org/ns#"
   xmlns:rdf="http://www.w3.org/1999/02/22-rdf-syntax-ns#"
   xmlns:svg="http://www.w3.org/2000/svg"
   xmlns="http://www.w3.org/2000/svg"
   xmlns:sodipodi="http://sodipodi.sourceforge.net/DTD/sodipodi-0.dtd"
   xmlns:inkscape="http://www.inkscape.org/namespaces/inkscape"
   width="567.96576"
   height="899.29114"
   viewBox="0 0 567.96576 899.29114"
   id="svg4144"
   version="1.1"
   inkscape:version="0.91 r13725"
   sodipodi:docname="uniforme-america.svg"
   inkscape:export-filename="/home/diogocampos/Downloads/america_AM-uniforme.png"
   inkscape:export-xdpi="90"
   inkscape:export-ydpi="90">
  <defs
     id="defs4146" />
  <sodipodi:namedview
     id="base"
     pagecolor="#ffffff"
     bordercolor="#666666"
     borderopacity="1.0"
     inkscape:pageopacity="0.0"
     inkscape:pageshadow="2"
     inkscape:zoom="0.51987607"
     inkscape:cx="675.04024"
     inkscape:cy="458.61062"
     inkscape:document-units="px"
     inkscape:current-layer="layer1"
     showgrid="false"
     units="px"
     inkscape:showpageshadow="false"
     inkscape:window-width="1280"
     inkscape:window-height="656"
     inkscape:window-x="0"
     inkscape:window-y="27"
     inkscape:window-maximized="1"
     showguides="false"
     inkscape:guide-bbox="true"
     fit-margin-top="0"
     fit-margin-left="0"
     fit-margin-right="0"
     fit-margin-bottom="0">
    <sodipodi:guide
       position="-116.96171,1228.4359"
       orientation="1,0"
       id="guide3368"
       inkscape:label=""
       inkscape:color="rgb(0,0,255)" />
    <sodipodi:guide
       position="-16.961719,1098.0011"
       orientation="1,0"
       id="guide3370"
       inkscape:label=""
       inkscape:color="rgb(0,0,255)" />
    <sodipodi:guide
       position="83.038281,1137.1316"
       orientation="1,0"
       id="guide3372"
       inkscape:label=""
       inkscape:color="rgb(0,0,255)" />
    <sodipodi:guide
       position="183.03828,1132.7837"
       orientation="1,0"
       id="guide3374"
       inkscape:label=""
       inkscape:color="rgb(0,0,255)" />
    <sodipodi:guide
       position="283.03828,1228.4359"
       orientation="1,0"
       id="guide3376"
       inkscape:label=""
       inkscape:color="rgb(0,0,0)" />
    <sodipodi:guide
       position="383.03828,1263.2185"
       orientation="1,0"
       id="guide3378"
       inkscape:label=""
       inkscape:color="rgb(0,0,255)" />
    <sodipodi:guide
       position="483.03828,1202.349"
       orientation="1,0"
       id="guide3380"
       inkscape:label=""
       inkscape:color="rgb(0,0,255)" />
    <sodipodi:guide
       position="583.03828,1128.4359"
       orientation="1,0"
       id="guide3382"
       inkscape:label=""
       inkscape:color="rgb(0,0,255)" />
    <sodipodi:guide
       position="683.03828,1193.6533"
       orientation="1,0"
       id="guide3384"
       inkscape:label=""
       inkscape:color="rgb(0,0,255)" />
    <sodipodi:guide
       position="1109.1253,41.479463"
       orientation="0,1"
       id="guide3386"
       inkscape:label=""
       inkscape:color="rgb(0,0,255)" />
    <sodipodi:guide
       position="1222.1687,141.47945"
       orientation="0,1"
       id="guide3388"
       inkscape:label=""
       inkscape:color="rgb(0,0,255)" />
    <sodipodi:guide
       position="1278.6905,241.47945"
       orientation="0,1"
       id="guide3390"
       inkscape:label=""
       inkscape:color="rgb(0,0,255)" />
    <sodipodi:guide
       position="1148.2557,341.47945"
       orientation="0,1"
       id="guide3392"
       inkscape:label=""
       inkscape:color="rgb(0,0,255)" />
    <sodipodi:guide
       position="1417.8209,441.47945"
       orientation="0,1"
       id="guide3394"
       inkscape:label=""
       inkscape:color="rgb(0,0,0)" />
    <sodipodi:guide
       position="1200.4296,541.47945"
       orientation="0,1"
       id="guide3396"
       inkscape:label=""
       inkscape:color="rgb(0,0,255)" />
    <sodipodi:guide
       position="1391.734,641.47945"
       orientation="0,1"
       id="guide3398"
       inkscape:label=""
       inkscape:color="rgb(0,0,255)" />
    <sodipodi:guide
       position="1465.647,741.47945"
       orientation="0,1"
       id="guide3400"
       inkscape:label=""
       inkscape:color="rgb(0,0,255)" />
    <sodipodi:guide
       position="1400.4296,841.47945"
       orientation="0,1"
       id="guide3402"
       inkscape:label=""
       inkscape:color="rgb(0,0,255)" />
  </sodipodi:namedview>
  <metadata
     id="metadata4149">
    <rdf:RDF>
      <cc:Work
         rdf:about="">
        <dc:format>image/svg+xml</dc:format>
        <dc:type
           rdf:resource="http://purl.org/dc/dcmitype/StillImage" />
        <dc:title></dc:title>
      </cc:Work>
    </rdf:RDF>
  </metadata>
  <g
     inkscape:label="Camada 1"
     inkscape:groupmode="layer"
     id="layer1"
     transform="translate(-216.96171,-94.550443)">
    <path
       sodipodi:nodetypes="cccccccccc"
       inkscape:connector-curvature="0"
       id="path3422"
       d="m 346.9134,856.53492 8.6972,136.80665 100.0371,0 0,-136.80665 z m 193.4726,0 0,136.80665 100.0352,0 8.6992,-136.80665 z"
       style="opacity:1;fill:#2c3683;fill-opacity:1;stroke:#000000;stroke-width:1;stroke-linecap:butt;stroke-linejoin:miter;stroke-miterlimit:4;stroke-dasharray:none;stroke-dashoffset:0;stroke-opacity:1" />
    <path
       style="opacity:1;fill:#ffffff;fill-opacity:1;stroke:none;stroke-width:1;stroke-linecap:butt;stroke-linejoin:miter;stroke-miterlimit:4;stroke-dasharray:none;stroke-dashoffset:0;stroke-opacity:1"
       d="m 129.24414,761.48438 0.57813,9.09179 108.15625,0 0,-9.09179 -108.73438,0 z m 193.47266,0 0,9.09179 108.15625,0 0.57812,-9.09179 -108.73437,0 z"
       transform="translate(217.6692,95.050541)"
       id="path4290"
       inkscape:connector-curvature="0" />
    <path
       style="opacity:1;fill:#ffffff;fill-opacity:1;stroke:none;stroke-width:1;stroke-linecap:butt;stroke-linejoin:miter;stroke-miterlimit:4;stroke-dasharray:none;stroke-dashoffset:0;stroke-opacity:1"
       d="m 138.51562,761.48438 5.5,77.36132 9.74024,-0.6914 -5.44922,-76.66992 -9.79102,0 z"
       transform="translate(217.6692,95.050541)"
       id="path4292"
       inkscape:connector-curvature="0" />
    <path
       sodipodi:nodetypes="ccccccccccccc"
       inkscape:connector-curvature="0"
       id="path3418"
       d="m 348.6751,95.050541 -131.0059,130.867189 92.0567,91.95703 38.9492,-38.90234 0,199.75 304.539,0 0,-199.75 38.9454,38.90234 L 784.22,225.91382 653.2141,95.050541 c -29.5114,0.014 -59.0256,-1.9e-4 -88.5371,0.008 -63.7322,28.295669 -63.7268,28.295669 -127.4589,0 -29.5143,-0.004 -59.0289,0.002 -88.543,-0.008 z"
       style="opacity:1;fill:#2c3683;fill-opacity:1;stroke:#000000;stroke-width:1;stroke-linecap:butt;stroke-linejoin:miter;stroke-miterlimit:4;stroke-dasharray:none;stroke-dashoffset:0;stroke-opacity:1" />
    <path
       sodipodi:nodetypes="cccccccc"
       inkscape:connector-curvature="0"
       id="path3420"
       d="m 348.4095,482.64039 -39.7696,298.14062 160.25,0 32.0547,-104.125 32.0469,104.125 160.2578,0 -39.7695,-298.14062 z"
       style="opacity:1;fill:#2c3683;fill-opacity:1;stroke:#000000;stroke-width:1;stroke-linecap:butt;stroke-linejoin:miter;stroke-miterlimit:4;stroke-dasharray:none;stroke-dashoffset:0;stroke-opacity:1" />
    <path
       style="opacity:1;fill:#ffffff;fill-opacity:1;stroke:none;stroke-width:1;stroke-linecap:butt;stroke-linejoin:miter;stroke-miterlimit:4;stroke-dasharray:none;stroke-dashoffset:0;stroke-opacity:1"
       d="m 411.05859,761.48438 -5.45117,76.66992 9.74219,0.6914 5.49805,-77.36132 -9.78907,0 z"
       transform="translate(217.6692,95.050541)"
       id="path4288"
       inkscape:connector-curvature="0" />
    <path
       inkscape:connector-curvature="0"
       id="path4268"
       d="m 309.86256,771.61109 -1.22266,9.16992 160.25,0 2.82227,-9.16992 -161.84961,0 z m 220.30664,0 2.82227,9.16992 160.25781,0 -1.22266,-9.16992 -161.85742,0 z"
       style="opacity:1;fill:#ffffff;fill-opacity:1;stroke:none;stroke-width:1;stroke-linecap:butt;stroke-linejoin:miter;stroke-miterlimit:4;stroke-dasharray:none;stroke-dashoffset:0;stroke-opacity:1" />
    <path
       inkscape:connector-curvature="0"
       id="path4270"
       d="m 640.18287,632.43921 -9.68164,1.27344 19.35547,147.06836 9.84766,0 -19.52149,-148.3418 z"
       style="opacity:1;fill:#ffffff;fill-opacity:1;stroke:none;stroke-width:1;stroke-linecap:butt;stroke-linejoin:miter;stroke-miterlimit:4;stroke-dasharray:none;stroke-dashoffset:0;stroke-opacity:1" />
    <path
       inkscape:connector-curvature="0"
       id="path4272"
       d="m 651.82154,573.70484 -9.67968,1.29297 27.47265,205.7832 9.85352,0 -27.64649,-207.07617 z"
       style="opacity:1;fill:#ffffff;fill-opacity:1;stroke:none;stroke-width:1;stroke-linecap:butt;stroke-linejoin:miter;stroke-miterlimit:4;stroke-dasharray:none;stroke-dashoffset:0;stroke-opacity:1" />
    <path
       inkscape:connector-curvature="0"
       id="path4241"
       d="m 396.95534,95.054449 0,288.390621 19.53125,0 0,-288.388668 c -6.51043,-1.64e-4 -13.02081,-0.0019 -19.53125,-0.002 z"
       style="opacity:1;fill:#ffffff;fill-opacity:1;stroke:none;stroke-width:1;stroke-linecap:butt;stroke-linejoin:miter;stroke-miterlimit:4;stroke-dasharray:none;stroke-dashoffset:0;stroke-opacity:1" />
    <path
       inkscape:connector-curvature="0"
       id="path4246"
       d="m 348.28933,95.437261 -130.61914,130.480469 13.41601,13.40234 117.20313,-116.53125 0,-27.351559 z"
       style="opacity:1;fill:#ffffff;fill-opacity:1;stroke:none;stroke-width:1;stroke-linecap:butt;stroke-linejoin:miter;stroke-miterlimit:4;stroke-dasharray:none;stroke-dashoffset:0;stroke-opacity:1" />
    <path
       sodipodi:type="star"
       style="fill:#ffffff;fill-opacity:1;stroke:none;stroke-width:1;stroke-linecap:butt;stroke-linejoin:miter;stroke-miterlimit:4;stroke-dasharray:none;stroke-dashoffset:0;stroke-opacity:1"
       id="path4335"
       sodipodi:sides="5"
       sodipodi:cx="276.92285"
       sodipodi:cy="629.50146"
       sodipodi:r1="22.990133"
       sodipodi:r2="11.495067"
       sodipodi:arg1="0.39618257"
       sodipodi:arg2="1.0245011"
       inkscape:flatsided="false"
       inkscape:rounded="0"
       inkscape:randomized="0"
       d="m 298.13219,638.37334 -15.23736,0.95014 -7.85559,13.09082 -5.61224,-14.19798 -14.87762,-3.42582 11.7688,-9.72497 -1.33928,-15.2081 12.88576,8.18761 14.0499,-5.97329 -3.80497,14.7852 z"
       inkscape:transform-center-x="-1.5444078"
       inkscape:transform-center-y="-4.0769488"
       transform="matrix(1.9454515,-0.17295146,0.17295137,1.9454524,-83.269832,-943.69795)" />
  </g>
</svg>
