<?xml version="1.0" encoding="UTF-8" standalone="no"?>
<!-- Created with Inkscape (http://www.inkscape.org/) -->

<svg
   xmlns:dc="http://purl.org/dc/elements/1.1/"
   xmlns:cc="http://creativecommons.org/ns#"
   xmlns:rdf="http://www.w3.org/1999/02/22-rdf-syntax-ns#"
   xmlns:svg="http://www.w3.org/2000/svg"
   xmlns="http://www.w3.org/2000/svg"
   xmlns:sodipodi="http://sodipodi.sourceforge.net/DTD/sodipodi-0.dtd"
   xmlns:inkscape="http://www.inkscape.org/namespaces/inkscape"
   width="567.96576"
   height="899.2912"
   viewBox="0 0 567.96576 899.2912"
   id="svg4144"
   version="1.1"
   inkscape:version="0.91 r13725"
   sodipodi:docname="uniforme-pinheirense.svg"
   inkscape:export-filename="/home/diogocampos/Downloads/america_AM-uniforme.png"
   inkscape:export-xdpi="90"
   inkscape:export-ydpi="90">
  <defs
     id="defs4146" />
  <sodipodi:namedview
     id="base"
     pagecolor="#ffffff"
     bordercolor="#666666"
     borderopacity="1.0"
     inkscape:pageopacity="0.0"
     inkscape:pageshadow="2"
     inkscape:zoom="0.467"
     inkscape:cx="283.95009"
     inkscape:cy="441.40238"
     inkscape:document-units="px"
     inkscape:current-layer="layer1"
     showgrid="false"
     units="px"
     inkscape:showpageshadow="false"
     inkscape:window-width="1280"
     inkscape:window-height="656"
     inkscape:window-x="0"
     inkscape:window-y="27"
     inkscape:window-maximized="1"
     showguides="false"
     inkscape:guide-bbox="true"
     fit-margin-top="0"
     fit-margin-left="0"
     fit-margin-right="0"
     fit-margin-bottom="0">
    <sodipodi:guide
       position="-116.04991,593.57629"
       orientation="1,0"
       id="guide3334"
       inkscape:label=""
       inkscape:color="rgb(0,0,255)" />
    <sodipodi:guide
       position="-16.049914,1152.7071"
       orientation="1,0"
       id="guide3336"
       inkscape:label=""
       inkscape:color="rgb(0,0,255)" />
    <sodipodi:guide
       position="83.950086,1063.5501"
       orientation="1,0"
       id="guide3340"
       inkscape:label=""
       inkscape:color="rgb(0,0,255)" />
    <sodipodi:guide
       position="183.95009,1054.327"
       orientation="1,0"
       id="guide3342"
       inkscape:label=""
       inkscape:color="rgb(0,0,255)" />
    <sodipodi:guide
       position="283.95009,1011.2854"
       orientation="1,0"
       id="guide3344"
       inkscape:label=""
       inkscape:color="rgb(0,0,0)" />
    <sodipodi:guide
       position="383.95009,1008.2113"
       orientation="1,0"
       id="guide3346"
       inkscape:label=""
       inkscape:color="rgb(0,0,255)" />
    <sodipodi:guide
       position="483.95009,1005.1369"
       orientation="1,0"
       id="guide3348"
       inkscape:label=""
       inkscape:color="rgb(0,0,255)" />
    <sodipodi:guide
       position="583.95009,1069.6989"
       orientation="1,0"
       id="guide3350"
       inkscape:label=""
       inkscape:color="rgb(0,0,255)" />
    <sodipodi:guide
       position="683.95009,1091.2195"
       orientation="1,0"
       id="guide3352"
       inkscape:label=""
       inkscape:color="rgb(0,0,255)" />
    <sodipodi:guide
       position="-566.52892,41.40238"
       orientation="0,1"
       id="guide3354"
       inkscape:label=""
       inkscape:color="rgb(0,0,255)" />
    <sodipodi:guide
       position="-452.77696,141.40238"
       orientation="0,1"
       id="guide3356"
       inkscape:label=""
       inkscape:color="rgb(0,0,255)" />
    <sodipodi:guide
       position="-455.85134,241.40238"
       orientation="0,1"
       id="guide3358"
       inkscape:label=""
       inkscape:color="rgb(0,0,255)" />
    <sodipodi:guide
       position="-385.14066,341.40238"
       orientation="0,1"
       id="guide3360"
       inkscape:label=""
       inkscape:color="rgb(0,0,255)" />
    <sodipodi:guide
       position="-305.20686,441.40238"
       orientation="0,1"
       id="guide3362"
       inkscape:label=""
       inkscape:color="rgb(0,0,0)" />
    <sodipodi:guide
       position="-434.3307,541.40238"
       orientation="0,1"
       id="guide3364"
       inkscape:label=""
       inkscape:color="rgb(0,0,255)" />
    <sodipodi:guide
       position="-440.47945,641.40238"
       orientation="0,1"
       id="guide3366"
       inkscape:label=""
       inkscape:color="rgb(0,0,255)" />
    <sodipodi:guide
       position="-252.94244,741.40238"
       orientation="0,1"
       id="guide3368"
       inkscape:label=""
       inkscape:color="rgb(0,0,255)" />
    <sodipodi:guide
       position="-397.43817,841.40238"
       orientation="0,1"
       id="guide3370"
       inkscape:label=""
       inkscape:color="rgb(0,0,255)" />
  </sodipodi:namedview>
  <metadata
     id="metadata4149">
    <rdf:RDF>
      <cc:Work
         rdf:about="">
        <dc:format>image/svg+xml</dc:format>
        <dc:type
           rdf:resource="http://purl.org/dc/dcmitype/StillImage" />
        <dc:title></dc:title>
      </cc:Work>
    </rdf:RDF>
  </metadata>
  <g
     inkscape:label="Camada 1"
     inkscape:groupmode="layer"
     id="layer1"
     transform="translate(-216.04991,-94.473356)">
    <path
       sodipodi:nodetypes="cccccccccc"
       inkscape:connector-curvature="0"
       id="path3422"
       d="m 346.0016,856.45784 8.6972,136.8067 100.0371,0 0,-136.8067 z m 193.4726,0 0,136.8067 100.0352,0 8.6992,-136.8067 z"
       style="opacity:1;fill:#ffffff;fill-opacity:1;stroke:#000000;stroke-width:1;stroke-linecap:butt;stroke-linejoin:miter;stroke-miterlimit:4;stroke-dasharray:none;stroke-dashoffset:0;stroke-opacity:1" />
    <path
       sodipodi:nodetypes="ccccccccccccc"
       inkscape:connector-curvature="0"
       id="path3418"
       d="m 347.7633,94.973454 -131.0059,130.867186 92.0567,91.95704 38.9492,-38.90235 0,199.75001 304.539,0 0,-199.75 38.9454,38.90234 92.0605,-91.96095 L 652.3023,94.973454 c -29.5114,0.014 -59.0256,-1.9e-4 -88.5371,0.008 -63.7322,28.295666 -63.7268,28.295666 -127.4589,0 -29.5143,-0.004 -59.0289,0.002 -88.543,-0.008 z"
       style="opacity:1;fill:#ff6600;fill-opacity:1;stroke:#000000;stroke-width:1;stroke-linecap:butt;stroke-linejoin:miter;stroke-miterlimit:4;stroke-dasharray:none;stroke-dashoffset:0;stroke-opacity:1" />
    <path
       sodipodi:nodetypes="cccccccc"
       inkscape:connector-curvature="0"
       id="path3420"
       d="m 347.4977,482.56331 -39.7696,298.14062 160.25,0 32.0547,-104.125 32.0469,104.125 160.2578,0 -39.7695,-298.14062 z"
       style="opacity:1;fill:#ff6600;fill-opacity:1;stroke:#000000;stroke-width:1;stroke-linecap:butt;stroke-linejoin:miter;stroke-miterlimit:4;stroke-dasharray:none;stroke-dashoffset:0;stroke-opacity:1" />
    <path
       style="fill:#ffffff;fill-opacity:1;stroke:none;stroke-width:20;stroke-linecap:round;stroke-linejoin:miter;stroke-miterlimit:4;stroke-dasharray:none;stroke-dashoffset:0;stroke-opacity:1"
       d="m 652.30273,42.611328 c -16.82366,0.008 -33.64819,0.0049 -50.47265,0.0039 a 250,250 0 0 0 -17.04688,89.994142 250,250 0 0 0 67.51953,170.60156 l 0,-76.67774 38.94532,38.90235 L 783.30859,173.4746 652.30273,42.611328 Z"
       transform="translate(0,52.36216)"
       id="path4154"
       inkscape:connector-curvature="0" />
    <path
       style="color:#000000;font-style:normal;font-variant:normal;font-weight:normal;font-stretch:normal;font-size:medium;line-height:normal;font-family:sans-serif;text-indent:0;text-align:start;text-decoration:none;text-decoration-line:none;text-decoration-style:solid;text-decoration-color:#000000;letter-spacing:normal;word-spacing:normal;text-transform:none;direction:ltr;block-progression:tb;writing-mode:lr-tb;baseline-shift:baseline;text-anchor:start;white-space:normal;clip-rule:nonzero;display:inline;overflow:visible;visibility:visible;opacity:1;isolation:auto;mix-blend-mode:normal;color-interpolation:sRGB;color-interpolation-filters:linearRGB;solid-color:#000000;solid-opacity:1;fill:#c85000;fill-opacity:1;fill-rule:nonzero;stroke:none;stroke-width:20;stroke-linecap:round;stroke-linejoin:miter;stroke-miterlimit:4;stroke-dasharray:none;stroke-dashoffset:0;stroke-opacity:1;color-rendering:auto;image-rendering:auto;shape-rendering:auto;text-rendering:auto;enable-background:accumulate"
       d="m 580.13672,42.617188 c -5.45702,3.03e-4 -10.91422,4.38e-4 -16.3711,0.002 -1.94669,0.864287 -3.65884,1.620152 -5.49023,2.43164 -8.75502,27.633029 -13.49219,57.046282 -13.49219,87.558602 0,90.91772 41.95084,172.10932 107.51953,225.29882 l 0,-26.22851 C 598.49802,282.33954 564.7832,211.45235 564.7832,132.60938 c 0,-31.56512 5.42144,-61.847826 15.35352,-89.992192 z"
       transform="translate(0,52.36216)"
       id="circle4156"
       inkscape:connector-curvature="0" />
    <path
       style="color:#000000;font-style:normal;font-variant:normal;font-weight:normal;font-stretch:normal;font-size:medium;line-height:normal;font-family:sans-serif;text-indent:0;text-align:start;text-decoration:none;text-decoration-line:none;text-decoration-style:solid;text-decoration-color:#000000;letter-spacing:normal;word-spacing:normal;text-transform:none;direction:ltr;block-progression:tb;writing-mode:lr-tb;baseline-shift:baseline;text-anchor:start;white-space:normal;clip-rule:nonzero;display:inline;overflow:visible;visibility:visible;opacity:1;isolation:auto;mix-blend-mode:normal;color-interpolation:sRGB;color-interpolation-filters:linearRGB;solid-color:#000000;solid-opacity:1;fill:#ffffff;fill-opacity:1;fill-rule:nonzero;stroke:none;stroke-width:10;stroke-linecap:round;stroke-linejoin:miter;stroke-miterlimit:4;stroke-dasharray:none;stroke-dashoffset:0;stroke-opacity:1;color-rendering:auto;image-rendering:auto;shape-rendering:auto;text-rendering:auto;enable-background:accumulate"
       d="m 280.48633,109.81641 -7.26367,7.25781 c 9.27969,15.4953 14.9707,35.47851 14.9707,57.33008 0,21.30824 -5.41964,40.82977 -14.29297,56.15625 l 7.30859,7.29883 c 10.67976,-17.34682 16.98438,-39.42849 16.98438,-63.45508 0,-24.55598 -6.59563,-47.07358 -17.70703,-64.58789 z"
       transform="translate(0,52.36216)"
       id="circle4156-1"
       inkscape:connector-curvature="0" />
    <path
       style="color:#000000;font-style:normal;font-variant:normal;font-weight:normal;font-stretch:normal;font-size:medium;line-height:normal;font-family:sans-serif;text-indent:0;text-align:start;text-decoration:none;text-decoration-line:none;text-decoration-style:solid;text-decoration-color:#000000;letter-spacing:normal;word-spacing:normal;text-transform:none;direction:ltr;block-progression:tb;writing-mode:lr-tb;baseline-shift:baseline;text-anchor:start;white-space:normal;clip-rule:nonzero;display:inline;overflow:visible;visibility:visible;opacity:1;isolation:auto;mix-blend-mode:normal;color-interpolation:sRGB;color-interpolation-filters:linearRGB;solid-color:#000000;solid-opacity:1;fill:#ffffff;fill-opacity:1;fill-rule:nonzero;stroke:none;stroke-width:10;stroke-linecap:round;stroke-linejoin:miter;stroke-miterlimit:4;stroke-dasharray:none;stroke-dashoffset:0;stroke-opacity:1;color-rendering:auto;image-rendering:auto;shape-rendering:auto;text-rendering:auto;enable-background:accumulate"
       d="m 332.26562,544.40039 -1.40039,10.48828 c 8.09877,4.42858 15.46437,11.06687 21.70704,19.53906 11.94703,16.21384 19.52734,38.97101 19.52734,64.20899 0,25.23797 -7.58031,47.99514 -19.52734,64.20898 -10.74026,14.57606 -24.78018,23.7837 -40.21875,25.4961 l 27.96093,0 c 7.63584,-5.01856 14.4987,-11.67959 20.3086,-19.56446 13.38797,-18.1694 21.47656,-42.91155 21.47656,-70.14062 0,-27.22908 -8.08859,-51.97123 -21.47656,-70.14063 -7.78571,-10.56631 -17.462,-18.93678 -28.35743,-24.0957 z"
       transform="translate(0,52.36216)"
       id="circle4406"
       inkscape:connector-curvature="0" />
    <path
       style="color:#000000;font-style:normal;font-variant:normal;font-weight:normal;font-stretch:normal;font-size:medium;line-height:normal;font-family:sans-serif;text-indent:0;text-align:start;text-decoration:none;text-decoration-line:none;text-decoration-style:solid;text-decoration-color:#000000;letter-spacing:normal;word-spacing:normal;text-transform:none;direction:ltr;block-progression:tb;writing-mode:lr-tb;baseline-shift:baseline;text-anchor:start;white-space:normal;clip-rule:nonzero;display:inline;overflow:visible;visibility:visible;opacity:1;isolation:auto;mix-blend-mode:normal;color-interpolation:sRGB;color-interpolation-filters:linearRGB;solid-color:#000000;solid-opacity:1;fill:#ffffff;fill-opacity:1;fill-rule:nonzero;stroke:none;stroke-width:10;stroke-linecap:round;stroke-linejoin:miter;stroke-miterlimit:4;stroke-dasharray:none;stroke-dashoffset:0;stroke-opacity:1;color-rendering:auto;image-rendering:auto;shape-rendering:auto;text-rendering:auto;enable-background:accumulate"
       d="m 317.21289,657.23828 -1.33984,10.04102 c 11.37435,3.39933 21.5644,8.41002 29.98047,14.61132 16.21383,11.94705 25.78906,27.97438 25.78906,45.47071 0,0.32792 -0.009,0.65359 -0.0156,0.98047 l 10.00196,0 c 0.006,-0.327 0.0156,-0.65241 0.0156,-0.98047 0,-21.16361 -11.68998,-40.13351 -29.85937,-53.52149 -9.81606,-7.23288 -21.56315,-12.90146 -34.57227,-16.60156 z"
       transform="translate(0,52.36216)"
       id="circle4406-7"
       inkscape:connector-curvature="0" />
  </g>
</svg>
