<?xml version="1.0" encoding="UTF-8" standalone="no"?>
<!-- Created with Inkscape (http://www.inkscape.org/) -->

<svg
   xmlns:dc="http://purl.org/dc/elements/1.1/"
   xmlns:cc="http://creativecommons.org/ns#"
   xmlns:rdf="http://www.w3.org/1999/02/22-rdf-syntax-ns#"
   xmlns:svg="http://www.w3.org/2000/svg"
   xmlns="http://www.w3.org/2000/svg"
   xmlns:sodipodi="http://sodipodi.sourceforge.net/DTD/sodipodi-0.dtd"
   xmlns:inkscape="http://www.inkscape.org/namespaces/inkscape"
   width="567.96576"
   height="899.29114"
   viewBox="0 0 567.96576 899.29114"
   id="svg4144"
   version="1.1"
   inkscape:version="0.91 r13725"
   sodipodi:docname="uniforme-piaui.svg"
   inkscape:export-filename="/home/diogocampos/Downloads/america_AM-uniforme.png"
   inkscape:export-xdpi="90"
   inkscape:export-ydpi="90">
  <defs
     id="defs4146" />
  <sodipodi:namedview
     id="base"
     pagecolor="#ffffff"
     bordercolor="#666666"
     borderopacity="1.0"
     inkscape:pageopacity="0.0"
     inkscape:pageshadow="2"
     inkscape:zoom="0.467"
     inkscape:cx="637.2695"
     inkscape:cy="441.39425"
     inkscape:document-units="px"
     inkscape:current-layer="layer1"
     showgrid="false"
     units="px"
     inkscape:showpageshadow="false"
     inkscape:window-width="1280"
     inkscape:window-height="656"
     inkscape:window-x="0"
     inkscape:window-y="27"
     inkscape:window-maximized="1"
     showguides="false"
     inkscape:guide-bbox="true"
     fit-margin-top="0"
     fit-margin-left="0"
     fit-margin-right="0"
     fit-margin-bottom="0">
    <sodipodi:guide
       position="-116.04955,593.56816"
       orientation="1,0"
       id="guide3334"
       inkscape:label=""
       inkscape:color="rgb(0,0,255)" />
    <sodipodi:guide
       position="-16.049554,1152.699"
       orientation="1,0"
       id="guide3336"
       inkscape:label=""
       inkscape:color="rgb(0,0,255)" />
    <sodipodi:guide
       position="83.950446,1063.542"
       orientation="1,0"
       id="guide3340"
       inkscape:label=""
       inkscape:color="rgb(0,0,255)" />
    <sodipodi:guide
       position="183.95045,1054.3189"
       orientation="1,0"
       id="guide3342"
       inkscape:label=""
       inkscape:color="rgb(0,0,255)" />
    <sodipodi:guide
       position="283.95045,1011.2773"
       orientation="1,0"
       id="guide3344"
       inkscape:label=""
       inkscape:color="rgb(0,0,0)" />
    <sodipodi:guide
       position="383.95045,1008.2032"
       orientation="1,0"
       id="guide3346"
       inkscape:label=""
       inkscape:color="rgb(0,0,255)" />
    <sodipodi:guide
       position="483.95045,1005.1288"
       orientation="1,0"
       id="guide3348"
       inkscape:label=""
       inkscape:color="rgb(0,0,255)" />
    <sodipodi:guide
       position="583.95045,1069.6908"
       orientation="1,0"
       id="guide3350"
       inkscape:label=""
       inkscape:color="rgb(0,0,255)" />
    <sodipodi:guide
       position="683.95045,1091.2114"
       orientation="1,0"
       id="guide3352"
       inkscape:label=""
       inkscape:color="rgb(0,0,255)" />
    <sodipodi:guide
       position="-566.52856,41.39425"
       orientation="0,1"
       id="guide3354"
       inkscape:label=""
       inkscape:color="rgb(0,0,255)" />
    <sodipodi:guide
       position="-452.7766,141.39425"
       orientation="0,1"
       id="guide3356"
       inkscape:label=""
       inkscape:color="rgb(0,0,255)" />
    <sodipodi:guide
       position="-455.85098,241.39425"
       orientation="0,1"
       id="guide3358"
       inkscape:label=""
       inkscape:color="rgb(0,0,255)" />
    <sodipodi:guide
       position="-385.1403,341.39425"
       orientation="0,1"
       id="guide3360"
       inkscape:label=""
       inkscape:color="rgb(0,0,255)" />
    <sodipodi:guide
       position="-305.2065,441.39425"
       orientation="0,1"
       id="guide3362"
       inkscape:label=""
       inkscape:color="rgb(0,0,0)" />
    <sodipodi:guide
       position="-434.33034,541.39425"
       orientation="0,1"
       id="guide3364"
       inkscape:label=""
       inkscape:color="rgb(0,0,255)" />
    <sodipodi:guide
       position="-440.47909,641.39425"
       orientation="0,1"
       id="guide3366"
       inkscape:label=""
       inkscape:color="rgb(0,0,255)" />
    <sodipodi:guide
       position="-252.94208,741.39425"
       orientation="0,1"
       id="guide3368"
       inkscape:label=""
       inkscape:color="rgb(0,0,255)" />
    <sodipodi:guide
       position="-397.43781,841.39425"
       orientation="0,1"
       id="guide3370"
       inkscape:label=""
       inkscape:color="rgb(0,0,255)" />
  </sodipodi:namedview>
  <metadata
     id="metadata4149">
    <rdf:RDF>
      <cc:Work
         rdf:about="">
        <dc:format>image/svg+xml</dc:format>
        <dc:type
           rdf:resource="http://purl.org/dc/dcmitype/StillImage" />
        <dc:title></dc:title>
      </cc:Work>
    </rdf:RDF>
  </metadata>
  <g
     inkscape:label="Camada 1"
     inkscape:groupmode="layer"
     id="layer1"
     transform="translate(-216.04955,-94.46526)">
    <path
       sodipodi:nodetypes="cccccccccc"
       inkscape:connector-curvature="0"
       id="path3422"
       d="m 346.00124,856.44973 8.6972,136.80668 100.0371,0 0,-136.80668 z m 193.4726,0 0,136.80668 100.0352,0 8.6992,-136.80668 z"
       style="opacity:1;fill:#0a8c72;fill-opacity:1;stroke:#000000;stroke-width:1;stroke-linecap:butt;stroke-linejoin:miter;stroke-miterlimit:4;stroke-dasharray:none;stroke-dashoffset:0;stroke-opacity:1" />
    <path
       sodipodi:nodetypes="ccccccccccccc"
       inkscape:connector-curvature="0"
       id="path3418"
       d="m 347.76294,94.965358 -131.0059,130.867182 92.0567,91.95703 38.9492,-38.90234 0,199.75 304.539,0 0,-199.75 38.9454,38.90234 92.0605,-91.96094 -131.0059,-130.863272 c -29.5114,0.014 -59.0256,-1.9e-4 -88.5371,0.008 -63.7322,28.295662 -63.7268,28.295662 -127.4589,0 -29.5143,-0.004 -59.0289,0.002 -88.543,-0.008 z"
       style="opacity:1;fill:#600a8c;fill-opacity:1;stroke:#000000;stroke-width:1;stroke-linecap:butt;stroke-linejoin:miter;stroke-miterlimit:4;stroke-dasharray:none;stroke-dashoffset:0;stroke-opacity:1" />
    <path
       style="opacity:1;fill:#0a8c72;fill-opacity:1;stroke:none;stroke-width:1;stroke-linecap:butt;stroke-linejoin:miter;stroke-miterlimit:4;stroke-dasharray:none;stroke-dashoffset:0;stroke-opacity:1"
       d="m 348.0625,399.875 0,26.40039 303.9668,0 0,-26.40039 -303.9668,0 z"
       transform="translate(0,52.36216)"
       id="path4188"
       inkscape:connector-curvature="0" />
    <path
       style="opacity:1;fill:#0a8c72;fill-opacity:1;stroke:none;stroke-width:1;stroke-linecap:butt;stroke-linejoin:miter;stroke-miterlimit:4;stroke-dasharray:none;stroke-dashoffset:0;stroke-opacity:1"
       d="m 348.0625,341.875 0,29 303.9668,0 0,-29 -303.9668,0 z"
       transform="translate(0,52.36216)"
       id="path4186"
       inkscape:connector-curvature="0" />
    <path
       style="opacity:1;fill:#0a8c72;fill-opacity:1;stroke:none;stroke-width:1;stroke-linecap:butt;stroke-linejoin:miter;stroke-miterlimit:4;stroke-dasharray:none;stroke-dashoffset:0;stroke-opacity:1"
       d="m 348.0625,283.875 0,29 303.9668,0 0,-29 -303.9668,0 z"
       transform="translate(0,52.36216)"
       id="path4184"
       inkscape:connector-curvature="0" />
    <path
       style="opacity:1;fill:#0a8c72;fill-opacity:1;stroke:none;stroke-width:1;stroke-linecap:butt;stroke-linejoin:miter;stroke-miterlimit:4;stroke-dasharray:none;stroke-dashoffset:0;stroke-opacity:1"
       d="m 348.0625,225.875 0,29 303.9668,0 0,-29 -303.9668,0 z"
       transform="translate(0,52.36216)"
       id="path4182"
       inkscape:connector-curvature="0" />
    <path
       sodipodi:nodetypes="cccccccc"
       inkscape:connector-curvature="0"
       id="path3420"
       d="m 347.49734,482.5552 -39.7696,298.14062 160.25,0 32.0547,-104.125 32.0469,104.125 160.2578,0 -39.7695,-298.14062 z"
       style="opacity:1;fill:#600a8c;fill-opacity:1;stroke:#000000;stroke-width:1;stroke-linecap:butt;stroke-linejoin:miter;stroke-miterlimit:4;stroke-dasharray:none;stroke-dashoffset:0;stroke-opacity:1" />
    <path
       style="fill:#0a8c72;fill-opacity:1;stroke:none;stroke-width:10;stroke-linecap:round;stroke-linejoin:miter;stroke-miterlimit:4;stroke-dasharray:none;stroke-dashoffset:0;stroke-opacity:1"
       d="m 339.9375,486.875 -3.86914,29 327.92969,0 -3.86914,-29 -320.19141,0 z"
       transform="translate(0,52.36216)"
       id="rect4212"
       inkscape:connector-curvature="0" />
  </g>
</svg>
